ISO-10303-21;
HEADER;
FILE_DESCRIPTION (( 'STEP AP203' ),
    '1' );
FILE_NAME ('motor eje z_Predeterminado_sldprt.STEP',
    '2020-07-07T11:17:14',
    ( '' ),
    ( '' ),
    'SwSTEP 2.0',
    'SolidWorks 2018',
    '' );
FILE_SCHEMA (( 'CONFIG_CONTROL_DESIGN' ));
ENDSEC;

DATA;
#1 = FACE_OUTER_BOUND ( 'NONE', #109, .T. ) ;
#2 = DIRECTION ( 'NONE',  ( 0.0000000000000000000, 1.000000000000000000, 0.0000000000000000000 ) ) ;
#3 = LINE ( 'NONE', #582, #76 ) ;
#4 = CARTESIAN_POINT ( 'NONE',  ( 0.0000000000000000000, 102.0000000000000000, 4.000000000000000000 ) ) ;
#5 = ORIENTED_EDGE ( 'NONE', *, *, #689, .F. ) ;
#6 = ORIENTED_EDGE ( 'NONE', *, *, #489, .F. ) ;
#7 = CARTESIAN_POINT ( 'NONE',  ( -1.658312395177700571, 102.0000000000000000, 4.500000000000000888 ) ) ;
#8 = AXIS2_PLACEMENT_3D ( 'NONE', #292, #626, #217 ) ;
#9 = DIRECTION ( 'NONE',  ( 0.0000000000000000000, 0.0000000000000000000, 1.000000000000000000 ) ) ;
#10 = ORIENTED_EDGE ( 'NONE', *, *, #758, .F. ) ;
#11 = DIRECTION ( 'NONE',  ( 0.0000000000000000000, 1.000000000000000000, 0.0000000000000000000 ) ) ;
#12 = APPROVAL_PERSON_ORGANIZATION ( #501, #183, #161 ) ;
#13 = CIRCLE ( 'NONE', #918, 17.99999999999999645 ) ;
#14 = EDGE_CURVE ( 'NONE', #763, #338, #132, .T. ) ;
#15 = ORIENTED_EDGE ( 'NONE', *, *, #508, .T. ) ;
#16 = DIRECTION ( 'NONE',  ( -0.0000000000000000000, -1.000000000000000000, -0.0000000000000000000 ) ) ;
#17 = AXIS2_PLACEMENT_3D ( 'NONE', #135, #131, #552 ) ;
#18 = ORIENTED_EDGE ( 'NONE', *, *, #296, .F. ) ;
#19 = EDGE_LOOP ( 'NONE', ( #801, #219, #32, #261 ) ) ;
#20 = CARTESIAN_POINT ( 'NONE',  ( 13.00000000000000000, -2.000000000000000000, -3.249999999999971578 ) ) ;
#21 = ORIENTED_EDGE ( 'NONE', *, *, #409, .F. ) ;
#22 = CARTESIAN_POINT ( 'NONE',  ( 13.85640646055101577, 63.50000000000000000, 7.999999999999273470 ) ) ;
#23 = ADVANCED_FACE ( 'NONE', ( #62 ), #1044, .T. ) ;
#24 = DIRECTION ( 'NONE',  ( -0.0000000000000000000, -1.000000000000000000, -0.0000000000000000000 ) ) ;
#25 =( LENGTH_UNIT ( ) NAMED_UNIT ( * ) SI_UNIT ( .MILLI., .METRE. ) );
#26 = CARTESIAN_POINT ( 'NONE',  ( 15.50000000000000000, -2.000000000000000000, -3.249999999999971578 ) ) ;
#27 = FACE_BOUND ( 'NONE', #211, .T. ) ;
#28 = CIRCLE ( 'NONE', #106, 3.000000000000000000 ) ;
#29 = AXIS2_PLACEMENT_3D ( 'NONE', #48, #360, #858 ) ;
#30 = DIRECTION ( 'NONE',  ( 0.0000000000000000000, 0.0000000000000000000, 1.000000000000000000 ) ) ;
#31 = AXIS2_PLACEMENT_3D ( 'NONE', #994, #421, #590 ) ;
#32 = ORIENTED_EDGE ( 'NONE', *, *, #276, .T. ) ;
#33 = ORIENTED_EDGE ( 'NONE', *, *, #463, .T. ) ;
#34 = CARTESIAN_POINT ( 'NONE',  ( 13.85640646055101577, 75.50000000000000000, 7.999999999999273470 ) ) ;
#35 = EDGE_CURVE ( 'NONE', #608, #405, #900, .T. ) ;
#36 = ORIENTED_EDGE ( 'NONE', *, *, #660, .T. ) ;
#37 = LINE ( 'NONE', #808, #913 ) ;
#38 = CARTESIAN_POINT ( 'NONE',  ( 0.0000000000000000000, 0.0000000000000000000, -18.00000000000000000 ) ) ;
#39 = FACE_OUTER_BOUND ( 'NONE', #208, .T. ) ;
#40 = CIRCLE ( 'NONE', #785, 2.000000000000001776 ) ;
#41 = ORIENTED_EDGE ( 'NONE', *, *, #979, .F. ) ;
#42 = VERTEX_POINT ( 'NONE', #960 ) ;
#43 = ORIENTED_EDGE ( 'NONE', *, *, #901, .F. ) ;
#44 = CARTESIAN_POINT ( 'NONE',  ( 0.0000000000000000000, 77.00000000000000000, -18.00000000000000000 ) ) ;
#45 = DIRECTION ( 'NONE',  ( 0.0000000000000000000, 0.0000000000000000000, -1.000000000000000000 ) ) ;
#46 = AXIS2_PLACEMENT_3D ( 'NONE', #866, #1019, #700 ) ;
#47 = DIRECTION ( 'NONE',  ( 0.0000000000000000000, 1.000000000000000000, 0.0000000000000000000 ) ) ;
#48 = CARTESIAN_POINT ( 'NONE',  ( 0.0000000000000000000, 90.00000000000000000, 6.999999999999999112 ) ) ;
#49 = CIRCLE ( 'NONE', #885, 17.99999999999999645 ) ;
#50 = VECTOR ( 'NONE', #527, 1000.000000000000000 ) ;
#51 = CARTESIAN_POINT ( 'NONE',  ( -13.00000000000000178, -2.000000000000000000, -3.250000000000001332 ) ) ;
#52 = FACE_OUTER_BOUND ( 'NONE', #322, .T. ) ;
#53 = DIRECTION ( 'NONE',  ( 0.0000000000000000000, 0.0000000000000000000, 1.000000000000000000 ) ) ;
#54 = EDGE_CURVE ( 'NONE', #574, #856, #515, .T. ) ;
#55 = ORIENTED_EDGE ( 'NONE', *, *, #606, .F. ) ;
#56 = CARTESIAN_POINT ( 'NONE',  ( -13.00000000000000178, -2.000000000000000000, 3.249999999999998668 ) ) ;
#57 = DIRECTION ( 'NONE',  ( 0.0000000000000000000, 0.0000000000000000000, 1.000000000000000000 ) ) ;
#58 = DIRECTION ( 'NONE',  ( 1.000000000000000000, 0.0000000000000000000, 0.0000000000000000000 ) ) ;
#59 = EDGE_CURVE ( 'NONE', #301, #328, #297, .T. ) ;
#60 = APPROVAL_PERSON_ORGANIZATION ( #487, #531, #755 ) ;
#61 = VECTOR ( 'NONE', #369, 1000.000000000000000 ) ;
#62 = FACE_OUTER_BOUND ( 'NONE', #529, .T. ) ;
#63 = ORIENTED_EDGE ( 'NONE', *, *, #682, .T. ) ;
#64 = DIRECTION ( 'NONE',  ( 0.0000000000000000000, 0.0000000000000000000, 1.000000000000000000 ) ) ;
#65 = EDGE_CURVE ( 'NONE', #616, #1042, #429, .T. ) ;
#66 = CARTESIAN_POINT ( 'NONE',  ( -13.00000000000000178, -2.000000000000000000, 3.249999999999998668 ) ) ;
#67 = ORIENTED_EDGE ( 'NONE', *, *, #156, .T. ) ;
#68 = AXIS2_PLACEMENT_3D ( 'NONE', #803, #1048, #563 ) ;
#69 = CARTESIAN_POINT ( 'NONE',  ( -15.50000000000000178, 0.0000000000000000000, 3.249999999999998668 ) ) ;
#70 = CARTESIAN_POINT ( 'NONE',  ( 0.0000000000000000000, 75.50000000000000000, 0.0000000000000000000 ) ) ;
#71 = FACE_OUTER_BOUND ( 'NONE', #372, .T. ) ;
#72 = FACE_OUTER_BOUND ( 'NONE', #110, .T. ) ;
#73 = CARTESIAN_POINT ( 'NONE',  ( 2.204364238465235428E-15, 77.00000000000000000, 18.00000000000000000 ) ) ;
#74 = FACE_OUTER_BOUND ( 'NONE', #349, .T. ) ;
#75 = CARTESIAN_POINT ( 'NONE',  ( 0.0000000000000000000, 75.50000000000000000, -16.00000000000000000 ) ) ;
#76 = VECTOR ( 'NONE', #326, 1000.000000000000000 ) ;
#77 = ORIENTED_EDGE ( 'NONE', *, *, #409, .T. ) ;
#78 = DIRECTION ( 'NONE',  ( 0.0000000000000000000, 0.0000000000000000000, 1.000000000000000000 ) ) ;
#79 = VERTEX_POINT ( 'NONE', #314 ) ;
#80 = AXIS2_PLACEMENT_3D ( 'NONE', #873, #553, #1032 ) ;
#81 = CARTESIAN_POINT ( 'NONE',  ( 0.0000000000000000000, 90.00000000000000000, 6.999999999999999112 ) ) ;
#82 = DIRECTION ( 'NONE',  ( -0.0000000000000000000, -1.000000000000000000, -0.0000000000000000000 ) ) ;
#83 = DIRECTION ( 'NONE',  ( 0.0000000000000000000, 0.0000000000000000000, -1.000000000000000000 ) ) ;
#84 = EDGE_CURVE ( 'NONE', #236, #216, #683, .T. ) ;
#85 = DIRECTION ( 'NONE',  ( 0.0000000000000000000, 0.0000000000000000000, 1.000000000000000000 ) ) ;
#86 = VECTOR ( 'NONE', #802, 1000.000000000000000 ) ;
#87 = DIRECTION ( 'NONE',  ( 0.0000000000000000000, -0.0000000000000000000, -1.000000000000000000 ) ) ;
#88 = EDGE_LOOP ( 'NONE', ( #1003, #406, #275, #145 ) ) ;
#89 = ORIENTED_EDGE ( 'NONE', *, *, #482, .F. ) ;
#90 = CARTESIAN_POINT ( 'NONE',  ( 2.204364238465235033E-15, 57.00000000000000000, 18.00000000000000000 ) ) ;
#91 = VERTEX_POINT ( 'NONE', #974 ) ;
#92 = EDGE_LOOP ( 'NONE', ( #977, #940, #705, #928 ) ) ;
#93 = DIRECTION ( 'NONE',  ( -0.0000000000000000000, -1.000000000000000000, -0.0000000000000000000 ) ) ;
#94 = DIRECTION ( 'NONE',  ( -0.0000000000000000000, 1.000000000000000000, -0.0000000000000000000 ) ) ;
#95 = DIRECTION ( 'NONE',  ( -0.0000000000000000000, -1.000000000000000000, -0.0000000000000000000 ) ) ;
#96 = LINE ( 'NONE', #73, #502 ) ;
#97 = AXIS2_PLACEMENT_3D ( 'NONE', #747, #95, #830 ) ;
#98 = DIRECTION ( 'NONE',  ( -0.0000000000000000000, -1.000000000000000000, -0.0000000000000000000 ) ) ;
#99 = LINE ( 'NONE', #233, #1013 ) ;
#100 = CC_DESIGN_PERSON_AND_ORGANIZATION_ASSIGNMENT ( #782, #415, ( #511 ) ) ;
#101 = VERTEX_POINT ( 'NONE', #422 ) ;
#102 = EDGE_CURVE ( 'NONE', #583, #1042, #437, .T. ) ;
#103 = ADVANCED_FACE ( 'NONE', ( #973 ), #337, .T. ) ;
#104 = VERTEX_POINT ( 'NONE', #826 ) ;
#105 = EDGE_CURVE ( 'NONE', #273, #42, #40, .T. ) ;
#106 = AXIS2_PLACEMENT_3D ( 'NONE', #791, #461, #371 ) ;
#107 = EDGE_LOOP ( 'NONE', ( #798, #270, #196, #187 ) ) ;
#108 = CARTESIAN_POINT ( 'NONE',  ( -13.00000000000000178, -2.000000000000000000, 3.249999999999998668 ) ) ;
#109 = EDGE_LOOP ( 'NONE', ( #825, #1014 ) ) ;
#110 = EDGE_LOOP ( 'NONE', ( #1006, #647, #370, #586 ) ) ;
#111 = DIRECTION ( 'NONE',  ( -0.0000000000000000000, 0.0000000000000000000, -1.000000000000000000 ) ) ;
#112 = EDGE_CURVE ( 'NONE', #953, #831, #3, .T. ) ;
#113 = CC_DESIGN_PERSON_AND_ORGANIZATION_ASSIGNMENT ( #152, #908, ( #588 ) ) ;
#114 = VECTOR ( 'NONE', #94, 1000.000000000000000 ) ;
#115 = DIRECTION ( 'NONE',  ( 0.0000000000000000000, 0.0000000000000000000, 1.000000000000000000 ) ) ;
#116 = VECTOR ( 'NONE', #766, 1000.000000000000000 ) ;
#117 = VECTOR ( 'NONE', #834, 1000.000000000000000 ) ;
#118 = ORIENTED_EDGE ( 'NONE', *, *, #59, .T. ) ;
#119 = CARTESIAN_POINT ( 'NONE',  ( 3.673940397442059868E-16, 102.0000000000000000, 10.00000000000000000 ) ) ;
#120 = VERTEX_POINT ( 'NONE', #496 ) ;
#121 = CARTESIAN_POINT ( 'NONE',  ( 3.673940397442059868E-16, 87.00000000000000000, 10.00000000000000000 ) ) ;
#122 = ORIENTED_EDGE ( 'NONE', *, *, #399, .T. ) ;
#123 = DIRECTION ( 'NONE',  ( 0.0000000000000000000, 0.0000000000000000000, 1.000000000000000000 ) ) ;
#124 = CARTESIAN_POINT ( 'NONE',  ( 15.58845726812024601, 63.50000000000000000, 8.999999999999387157 ) ) ;
#125 = EDGE_CURVE ( 'NONE', #157, #536, #654, .T. ) ;
#126 = AXIS2_PLACEMENT_3D ( 'NONE', #212, #551, #375 ) ;
#127 = CARTESIAN_POINT ( 'NONE',  ( 0.0000000000000000000, 63.50000000000000000, 0.0000000000000000000 ) ) ;
#128 = CARTESIAN_POINT ( 'NONE',  ( -13.00000000000000178, 0.0000000000000000000, 3.249999999999998668 ) ) ;
#129 = CIRCLE ( 'NONE', #312, 2.000000000000359268 ) ;
#130 = LINE ( 'NONE', #767, #50 ) ;
#131 = DIRECTION ( 'NONE',  ( 1.000000000000000000, 0.0000000000000000000, 0.0000000000000000000 ) ) ;
#132 = CIRCLE ( 'NONE', #151, 2.999999999999999112 ) ;
#133 = DIRECTION ( 'NONE',  ( 0.0000000000000000000, -0.0000000000000000000, 1.000000000000000000 ) ) ;
#134 = EDGE_CURVE ( 'NONE', #583, #120, #760, .T. ) ;
#135 = CARTESIAN_POINT ( 'NONE',  ( -15.50000000000000178, -2.000000000000000000, 3.249999999999998668 ) ) ;
#136 = CARTESIAN_POINT ( 'NONE',  ( -1.658312395177700571, 90.00000000000000000, 4.500000000000000888 ) ) ;
#137 = DIRECTION ( 'NONE',  ( -0.0000000000000000000, -1.000000000000000000, -0.0000000000000000000 ) ) ;
#138 = VECTOR ( 'NONE', #679, 1000.000000000000000 ) ;
#139 = VECTOR ( 'NONE', #466, 1000.000000000000000 ) ;
#140 = ADVANCED_FACE ( 'NONE', ( #52 ), #671, .T. ) ;
#141 = CARTESIAN_POINT ( 'NONE',  ( 15.50000000000000000, 0.0000000000000000000, 3.250000000000027978 ) ) ;
#142 = ORIENTED_EDGE ( 'NONE', *, *, #330, .F. ) ;
#143 = DIRECTION ( 'NONE',  ( 0.0000000000000000000, 0.0000000000000000000, 1.000000000000000000 ) ) ;
#144 = ORIENTED_EDGE ( 'NONE', *, *, #702, .F. ) ;
#145 = ORIENTED_EDGE ( 'NONE', *, *, #366, .T. ) ;
#146 = CC_DESIGN_SECURITY_CLASSIFICATION ( #511, ( #588 ) ) ;
#147 = CARTESIAN_POINT ( 'NONE',  ( 0.0000000000000000000, 87.00000000000000000, 7.000000000000000000 ) ) ;
#148 = DIRECTION ( 'NONE',  ( -0.0000000000000000000, 0.0000000000000000000, 1.000000000000000000 ) ) ;
#149 = CARTESIAN_POINT ( 'NONE',  ( 0.0000000000000000000, 102.0000000000000000, 7.000000000000000000 ) ) ;
#150 = DIRECTION ( 'NONE',  ( -1.000000000000000000, 0.0000000000000000000, 0.0000000000000000000 ) ) ;
#151 = AXIS2_PLACEMENT_3D ( 'NONE', #81, #229, #641 ) ;
#152 = PERSON_AND_ORGANIZATION ( #645, #243 ) ;
#153 = FACE_OUTER_BOUND ( 'NONE', #814, .T. ) ;
#154 = ORIENTED_EDGE ( 'NONE', *, *, #676, .T. ) ;
#155 = ORIENTED_EDGE ( 'NONE', *, *, #891, .F. ) ;
#156 = EDGE_CURVE ( 'NONE', #338, #301, #478, .T. ) ;
#157 = VERTEX_POINT ( 'NONE', #907 ) ;
#158 = AXIS2_PLACEMENT_3D ( 'NONE', #459, #621, #133 ) ;
#159 = CARTESIAN_POINT ( 'NONE',  ( -15.50000000000000178, -2.000000000000000000, 3.249999999999998668 ) ) ;
#160 = CARTESIAN_POINT ( 'NONE',  ( 0.0000000000000000000, 87.00000000000000000, 7.000000000000000000 ) ) ;
#161 = APPROVAL_ROLE ( '' ) ;
#162 = EDGE_CURVE ( 'NONE', #440, #157, #542, .T. ) ;
#163 = CARTESIAN_POINT ( 'NONE',  ( -13.85640646055038516, 63.50000000000000000, 7.999999999999635847 ) ) ;
#164 = CC_DESIGN_APPROVAL ( #992, ( #511 ) ) ;
#165 = CIRCLE ( 'NONE', #765, 2.000000000000780709 ) ;
#166 = CARTESIAN_POINT ( 'NONE',  ( 3.673940397442059868E-16, 102.0000000000000000, 10.00000000000000000 ) ) ;
#167 = VECTOR ( 'NONE', #561, 1000.000000000000000 ) ;
#168 = CARTESIAN_POINT ( 'NONE',  ( -13.00000000000000178, -0.0000000000000000000, -3.250000000000001332 ) ) ;
#169 = CARTESIAN_POINT ( 'NONE',  ( 0.0000000000000000000, 87.00000000000000000, 7.000000000000000000 ) ) ;
#170 = ADVANCED_FACE ( 'NONE', ( #1025, #258 ), #567, .T. ) ;
#171 = VERTEX_POINT ( 'NONE', #651 ) ;
#172 = APPLICATION_CONTEXT ( 'configuration controlled 3d designs of mechanical parts and assemblies' ) ;
#173 = ADVANCED_FACE ( 'NONE', ( #723, #1 ), #205, .T. ) ;
#174 = DIRECTION ( 'NONE',  ( 0.0000000000000000000, 0.0000000000000000000, -1.000000000000000000 ) ) ;
#175 = ADVANCED_FACE ( 'NONE', ( #257 ), #503, .T. ) ;
#176 = ORIENTED_EDGE ( 'NONE', *, *, #821, .F. ) ;
#177 = LOCAL_TIME ( 13, 17, 14.00000000000000000, #411 ) ;
#178 = LINE ( 'NONE', #800, #914 ) ;
#179 = AXIS2_PLACEMENT_3D ( 'NONE', #844, #848, #1007 ) ;
#180 = CARTESIAN_POINT ( 'NONE',  ( 13.85640646055101577, 63.50000000000000000, 7.999999999999273470 ) ) ;
#181 = CYLINDRICAL_SURFACE ( 'NONE', #401, 18.00000000000000000 ) ;
#182 = DIRECTION ( 'NONE',  ( 0.0000000000000000000, -0.0000000000000000000, 1.000000000000000000 ) ) ;
#183 = APPROVAL ( #906, 'UNSPECIFIED' ) ;
#184 = ORIENTED_EDGE ( 'NONE', *, *, #399, .F. ) ;
#185 = VERTEX_POINT ( 'NONE', #778 ) ;
#186 = EDGE_LOOP ( 'NONE', ( #975, #711, #829, #300 ) ) ;
#187 = ORIENTED_EDGE ( 'NONE', *, *, #105, .T. ) ;
#188 = EDGE_CURVE ( 'NONE', #809, #91, #916, .T. ) ;
#189 = DIRECTION ( 'NONE',  ( 1.000000000000000000, 0.0000000000000000000, 0.0000000000000000000 ) ) ;
#190 = CARTESIAN_POINT ( 'NONE',  ( 0.0000000000000000000, 77.00000000000000000, 0.0000000000000000000 ) ) ;
#191 = PRODUCT_DEFINITION_SHAPE ( 'NONE', 'NONE',  #404 ) ;
#192 = DATE_AND_TIME ( #281, #691 ) ;
#193 = FACE_OUTER_BOUND ( 'NONE', #751, .T. ) ;
#194 = ORIENTED_EDGE ( 'NONE', *, *, #846, .F. ) ;
#195 = DIRECTION ( 'NONE',  ( 0.0000000000000000000, 0.0000000000000000000, 1.000000000000000000 ) ) ;
#196 = ORIENTED_EDGE ( 'NONE', *, *, #433, .T. ) ;
#197 = EDGE_LOOP ( 'NONE', ( #194, #493, #1033, #77 ) ) ;
#198 = ORIENTED_EDGE ( 'NONE', *, *, #702, .T. ) ;
#199 = DIRECTION ( 'NONE',  ( 0.0000000000000000000, 1.000000000000000000, 0.0000000000000000000 ) ) ;
#200 = PLANE ( 'NONE',  #29 ) ;
#201 = AXIS2_PLACEMENT_3D ( 'NONE', #630, #1038, #718 ) ;
#202 = CC_DESIGN_DATE_AND_TIME_ASSIGNMENT ( #537, #835, ( #511 ) ) ;
#203 = DIRECTION ( 'NONE',  ( -0.0000000000000000000, -1.000000000000000000, -0.0000000000000000000 ) ) ;
#204 = FACE_OUTER_BOUND ( 'NONE', #655, .T. ) ;
#205 = PLANE ( 'NONE',  #361 ) ;
#206 = VECTOR ( 'NONE', #58, 1000.000000000000000 ) ;
#207 = EDGE_CURVE ( 'NONE', #286, #236, #985, .T. ) ;
#208 = EDGE_LOOP ( 'NONE', ( #18, #632 ) ) ;
#209 = DIRECTION ( 'NONE',  ( 0.0000000000000000000, 1.000000000000000000, 0.0000000000000000000 ) ) ;
#210 = ORIENTED_EDGE ( 'NONE', *, *, #667, .T. ) ;
#211 = EDGE_LOOP ( 'NONE', ( #506, #922, #526, #965 ) ) ;
#212 = CARTESIAN_POINT ( 'NONE',  ( 15.50000000000000000, -2.000000000000000000, 3.250000000000027978 ) ) ;
#213 = CARTESIAN_POINT ( 'NONE',  ( 13.00000000000000000, -2.000000000000000000, 3.250000000000027978 ) ) ;
#214 = CALENDAR_DATE ( 2020, 7, 7 ) ;
#215 = CIRCLE ( 'NONE', #635, 6.000000000000000888 ) ;
#216 = VERTEX_POINT ( 'NONE', #124 ) ;
#217 = DIRECTION ( 'NONE',  ( 0.0000000000000000000, 0.0000000000000000000, 1.000000000000000000 ) ) ;
#218 = EDGE_CURVE ( 'NONE', #728, #564, #130, .T. ) ;
#219 = ORIENTED_EDGE ( 'NONE', *, *, #497, .T. ) ;
#220 = ORIENTED_EDGE ( 'NONE', *, *, #1009, .T. ) ;
#221 = CARTESIAN_POINT ( 'NONE',  ( 15.50000000000000000, -2.000000000000000000, 3.250000000000027978 ) ) ;
#222 = ORIENTED_EDGE ( 'NONE', *, *, #431, .T. ) ;
#223 = ADVANCED_FACE ( 'NONE', ( #695 ), #181, .T. ) ;
#224 = DIRECTION ( 'NONE',  ( 0.0000000000000000000, 1.000000000000000000, 0.0000000000000000000 ) ) ;
#225 = PLANE ( 'NONE',  #68 ) ;
#226 = DATE_AND_TIME ( #613, #177 ) ;
#227 = DIRECTION ( 'NONE',  ( 0.0000000000000000000, 1.000000000000000000, 0.0000000000000000000 ) ) ;
#228 = CIRCLE ( 'NONE', #883, 18.00000000000000000 ) ;
#229 = DIRECTION ( 'NONE',  ( 0.0000000000000000000, 1.000000000000000000, -0.0000000000000000000 ) ) ;
#230 = VECTOR ( 'NONE', #203, 1000.000000000000000 ) ;
#231 = CARTESIAN_POINT ( 'NONE',  ( 15.50000000000000000, -2.000000000000000000, -3.249999999999971578 ) ) ;
#232 = ORIENTED_EDGE ( 'NONE', *, *, #535, .T. ) ;
#233 = CARTESIAN_POINT ( 'NONE',  ( -13.00000000000000178, -2.000000000000000000, -3.250000000000001332 ) ) ;
#234 = AXIS2_PLACEMENT_3D ( 'NONE', #1010, #199, #692 ) ;
#235 = EDGE_LOOP ( 'NONE', ( #10, #560, #852, #63, #520, #363 ) ) ;
#236 = VERTEX_POINT ( 'NONE', #1011 ) ;
#237 = CC_DESIGN_PERSON_AND_ORGANIZATION_ASSIGNMENT ( #707, #665, ( #484 ) ) ;
#238 = DIRECTION ( 'NONE',  ( 0.0000000000000000000, 0.0000000000000000000, 1.000000000000000000 ) ) ;
#239 = DIRECTION ( 'NONE',  ( 0.0000000000000000000, 1.000000000000000000, 0.0000000000000000000 ) ) ;
#240 = EDGE_CURVE ( 'NONE', #599, #903, #428, .T. ) ;
#241 = CARTESIAN_POINT ( 'NONE',  ( 0.0000000000000000000, 77.00000000000000000, 7.000000000000000000 ) ) ;
#242 = APPROVAL_PERSON_ORGANIZATION ( #780, #992, #333 ) ;
#243 = ORGANIZATION ( 'UNSPECIFIED', 'UNSPECIFIED', '' ) ;
#244 = VECTOR ( 'NONE', #715, 1000.000000000000000 ) ;
#245 = EDGE_LOOP ( 'NONE', ( #643, #467, #817, #517 ) ) ;
#246 = ORIENTED_EDGE ( 'NONE', *, *, #431, .F. ) ;
#247 = ORIENTED_EDGE ( 'NONE', *, *, #162, .T. ) ;
#248 = EDGE_LOOP ( 'NONE', ( #877, #1017, #713 ) ) ;
#249 = CARTESIAN_POINT ( 'NONE',  ( 0.0000000000000000000, 0.0000000000000000000, 0.0000000000000000000 ) ) ;
#250 = DIRECTION ( 'NONE',  ( 0.0000000000000000000, 0.0000000000000000000, 1.000000000000000000 ) ) ;
#251 = ADVANCED_FACE ( 'NONE', ( #283 ), #200, .F. ) ;
#252 = DATE_TIME_ROLE ( 'creation_date' ) ;
#253 = DIRECTION ( 'NONE',  ( -0.0000000000000000000, -1.000000000000000000, -0.0000000000000000000 ) ) ;
#254 = LOCAL_TIME ( 13, 17, 14.00000000000000000, #898 ) ;
#255 = AXIS2_PLACEMENT_3D ( 'NONE', #315, #724, #813 ) ;
#256 = CYLINDRICAL_SURFACE ( 'NONE', #447, 2.000000000000001776 ) ;
#257 = FACE_OUTER_BOUND ( 'NONE', #495, .T. ) ;
#258 = FACE_OUTER_BOUND ( 'NONE', #658, .T. ) ;
#259 = ADVANCED_FACE ( 'NONE', ( #74 ), #444, .T. ) ;
#260 = CARTESIAN_POINT ( 'NONE',  ( 0.0000000000000000000, 87.00000000000000000, 7.000000000000000000 ) ) ;
#261 = ORIENTED_EDGE ( 'NONE', *, *, #433, .F. ) ;
#262 = PERSON_AND_ORGANIZATION_ROLE ( 'design_supplier' ) ;
#263 = DIRECTION ( 'NONE',  ( -0.0000000000000000000, -1.000000000000000000, -0.0000000000000000000 ) ) ;
#264 = EDGE_CURVE ( 'NONE', #544, #342, #670, .T. ) ;
#265 = EDGE_LOOP ( 'NONE', ( #293, #271, #456, #357, #5 ) ) ;
#266 = FACE_OUTER_BOUND ( 'NONE', #799, .T. ) ;
#267 = AXIS2_PLACEMENT_3D ( 'NONE', #964, #915, #78 ) ;
#268 = CARTESIAN_POINT ( 'NONE',  ( 7.347880794884120722E-16, 77.00000000000000000, 13.00000000000000178 ) ) ;
#269 = LINE ( 'NONE', #533, #116 ) ;
#270 = ORIENTED_EDGE ( 'NONE', *, *, #676, .F. ) ;
#271 = ORIENTED_EDGE ( 'NONE', *, *, #891, .T. ) ;
#272 = DIRECTION ( 'NONE',  ( 0.0000000000000000000, 1.000000000000000000, 0.0000000000000000000 ) ) ;
#273 = VERTEX_POINT ( 'NONE', #942 ) ;
#274 = CARTESIAN_POINT ( 'NONE',  ( 0.0000000000000000000, 0.0000000000000000000, 0.0000000000000000000 ) ) ;
#275 = ORIENTED_EDGE ( 'NONE', *, *, #516, .F. ) ;
#276 = EDGE_CURVE ( 'NONE', #42, #273, #961, .T. ) ;
#277 = DIRECTION ( 'NONE',  ( -0.0000000000000000000, -1.000000000000000000, -0.0000000000000000000 ) ) ;
#278 = DIRECTION ( 'NONE',  ( -0.0000000000000000000, -1.000000000000000000, -0.0000000000000000000 ) ) ;
#279 = DIRECTION ( 'NONE',  ( -0.0000000000000000000, 1.000000000000000000, -0.0000000000000000000 ) ) ;
#280 = CARTESIAN_POINT ( 'NONE',  ( 0.0000000000000000000, 87.00000000000000000, 7.000000000000000000 ) ) ;
#281 = CALENDAR_DATE ( 2020, 7, 7 ) ;
#282 = LINE ( 'NONE', #615, #556 ) ;
#283 = FACE_OUTER_BOUND ( 'NONE', #910, .T. ) ;
#284 = ORIENTED_EDGE ( 'NONE', *, *, #594, .T. ) ;
#285 = DIRECTION ( 'NONE',  ( -1.000000000000000000, 0.0000000000000000000, 0.0000000000000000000 ) ) ;
#286 = VERTEX_POINT ( 'NONE', #600 ) ;
#287 = DIRECTION ( 'NONE',  ( 0.0000000000000000000, 0.0000000000000000000, 1.000000000000000000 ) ) ;
#288 = ORIENTED_EDGE ( 'NONE', *, *, #869, .T. ) ;
#289 = CARTESIAN_POINT ( 'NONE',  ( 0.0000000000000000000, 77.00000000000000000, 0.0000000000000000000 ) ) ;
#290 = AXIS2_PLACEMENT_3D ( 'NONE', #302, #224, #1041 ) ;
#291 = CARTESIAN_POINT ( 'NONE',  ( 0.0000000000000000000, 75.50000000000000000, 0.0000000000000000000 ) ) ;
#292 = CARTESIAN_POINT ( 'NONE',  ( 0.0000000000000000000, 63.50000000000000000, 0.0000000000000000000 ) ) ;
#293 = ORIENTED_EDGE ( 'NONE', *, *, #547, .F. ) ;
#294 = VECTOR ( 'NONE', #1046, 1000.000000000000000 ) ;
#295 = LINE ( 'NONE', #721, #86 ) ;
#296 = EDGE_CURVE ( 'NONE', #536, #157, #346, .T. ) ;
#297 = CIRCLE ( 'NONE', #926, 3.000000000000000000 ) ;
#298 =( GEOMETRIC_REPRESENTATION_CONTEXT ( 3 ) GLOBAL_UNCERTAINTY_ASSIGNED_CONTEXT ( ( #708 ) ) GLOBAL_UNIT_ASSIGNED_CONTEXT ( ( #25, #579, #745 ) ) REPRESENTATION_CONTEXT ( 'NONE', 'WORKASPACE' ) );
#299 = ORIENTED_EDGE ( 'NONE', *, *, #376, .T. ) ;
#300 = ORIENTED_EDGE ( 'NONE', *, *, #972, .T. ) ;
#301 = VERTEX_POINT ( 'NONE', #694 ) ;
#302 = CARTESIAN_POINT ( 'NONE',  ( 13.85640646055101577, 75.50000000000000000, 7.999999999999273470 ) ) ;
#303 = DIRECTION ( 'NONE',  ( 0.0000000000000000000, 1.000000000000000000, 0.0000000000000000000 ) ) ;
#304 = CARTESIAN_POINT ( 'NONE',  ( 0.0000000000000000000, 77.00000000000000000, 0.9999999999999991118 ) ) ;
#305 = CARTESIAN_POINT ( 'NONE',  ( 0.0000000000000000000, 90.00000000000000000, 4.000000000000000000 ) ) ;
#306 = LINE ( 'NONE', #231, #345 ) ;
#307 = CARTESIAN_POINT ( 'NONE',  ( 1.658312395177700571, 102.0000000000000000, 4.500000000000000888 ) ) ;
#308 = FACE_OUTER_BOUND ( 'NONE', #245, .T. ) ;
#309 = DIRECTION ( 'NONE',  ( -0.0000000000000000000, -1.000000000000000000, -0.0000000000000000000 ) ) ;
#310 = AXIS2_PLACEMENT_3D ( 'NONE', #1047, #227, #730 ) ;
#311 = ORIENTED_EDGE ( 'NONE', *, *, #392, .T. ) ;
#312 = AXIS2_PLACEMENT_3D ( 'NONE', #962, #2, #970 ) ;
#313 = ORIENTED_EDGE ( 'NONE', *, *, #35, .F. ) ;
#314 = CARTESIAN_POINT ( 'NONE',  ( -13.00000000000000178, 0.0000000000000000000, -3.250000000000001332 ) ) ;
#315 = CARTESIAN_POINT ( 'NONE',  ( 0.0000000000000000000, 87.00000000000000000, 7.000000000000000000 ) ) ;
#316 = DIRECTION ( 'NONE',  ( 0.0000000000000000000, 0.0000000000000000000, -1.000000000000000000 ) ) ;
#317 = AXIS2_PLACEMENT_3D ( 'NONE', #241, #11, #743 ) ;
#318 = APPROVAL_DATE_TIME ( #226, #992 ) ;
#319 = LINE ( 'NONE', #159, #847 ) ;
#320 = FACE_OUTER_BOUND ( 'NONE', #107, .T. ) ;
#321 = DIRECTION ( 'NONE',  ( 0.0000000000000000000, 0.0000000000000000000, 1.000000000000000000 ) ) ;
#322 = EDGE_LOOP ( 'NONE', ( #403, #485, #840, #687, #210, #878 ) ) ;
#323 = EDGE_CURVE ( 'NONE', #963, #629, #638, .T. ) ;
#324 = ORIENTED_EDGE ( 'NONE', *, *, #945, .F. ) ;
#325 = AXIS2_PLACEMENT_3D ( 'NONE', #500, #24, #726 ) ;
#326 = DIRECTION ( 'NONE',  ( -0.0000000000000000000, 1.000000000000000000, -0.0000000000000000000 ) ) ;
#327 = ORIENTED_EDGE ( 'NONE', *, *, #610, .T. ) ;
#328 = VERTEX_POINT ( 'NONE', #121 ) ;
#329 = CARTESIAN_POINT ( 'NONE',  ( 0.0000000000000000000, -2.000000000000000000, 0.0000000000000000000 ) ) ;
#330 = EDGE_CURVE ( 'NONE', #338, #505, #863, .T. ) ;
#331 = CARTESIAN_POINT ( 'NONE',  ( -13.85640646055038516, 75.50000000000000000, 5.999999999999277911 ) ) ;
#332 = SHAPE_DEFINITION_REPRESENTATION ( #191, #855 ) ;
#333 = APPROVAL_ROLE ( '' ) ;
#334 = FACE_OUTER_BOUND ( 'NONE', #419, .T. ) ;
#335 = ADVANCED_FACE ( 'NONE', ( #525 ), #546, .F. ) ;
#336 = VECTOR ( 'NONE', #470, 1000.000000000000000 ) ;
#337 = PLANE ( 'NONE',  #949 ) ;
#338 = VERTEX_POINT ( 'NONE', #305 ) ;
#339 = ORIENTED_EDGE ( 'NONE', *, *, #779, .T. ) ;
#340 = APPLICATION_PROTOCOL_DEFINITION ( 'international standard', 'config_control_design', 1994, #577 ) ;
#341 = DIRECTION ( 'NONE',  ( 0.0000000000000000000, 0.0000000000000000000, 1.000000000000000000 ) ) ;
#342 = VERTEX_POINT ( 'NONE', #881 ) ;
#343 = AXIS2_PLACEMENT_3D ( 'NONE', #1015, #278, #946 ) ;
#344 = AXIS2_PLACEMENT_3D ( 'NONE', #1031, #137, #787 ) ;
#345 = VECTOR ( 'NONE', #642, 1000.000000000000000 ) ;
#346 = CIRCLE ( 'NONE', #1005, 18.00000000000000000 ) ;
#347 = ORIENTED_EDGE ( 'NONE', *, *, #594, .F. ) ;
#348 = DIRECTION ( 'NONE',  ( 0.0000000000000000000, 1.000000000000000000, 0.0000000000000000000 ) ) ;
#349 = EDGE_LOOP ( 'NONE', ( #416, #1016, #220, #1040 ) ) ;
#350 = EDGE_CURVE ( 'NONE', #171, #79, #490, .T. ) ;
#351 = ORIENTED_EDGE ( 'NONE', *, *, #240, .T. ) ;
#352 = CARTESIAN_POINT ( 'NONE',  ( 15.50000000000000000, -2.000000000000000000, 3.250000000000027978 ) ) ;
#353 = LINE ( 'NONE', #968, #720 ) ;
#354 = DIRECTION ( 'NONE',  ( 0.0000000000000000000, 1.000000000000000000, 0.0000000000000000000 ) ) ;
#355 = LINE ( 'NONE', #213, #524 ) ;
#356 = LINE ( 'NONE', #168, #514 ) ;
#357 = ORIENTED_EDGE ( 'NONE', *, *, #606, .T. ) ;
#358 = DIRECTION ( 'NONE',  ( 0.0000000000000000000, 1.000000000000000000, 0.0000000000000000000 ) ) ;
#359 = ORIENTED_EDGE ( 'NONE', *, *, #624, .F. ) ;
#360 = DIRECTION ( 'NONE',  ( 0.0000000000000000000, -1.000000000000000000, 0.0000000000000000000 ) ) ;
#361 = AXIS2_PLACEMENT_3D ( 'NONE', #289, #365, #439 ) ;
#362 = CARTESIAN_POINT ( 'NONE',  ( -15.50000000000000178, -2.000000000000000000, -3.250000000000001332 ) ) ;
#363 = ORIENTED_EDGE ( 'NONE', *, *, #895, .F. ) ;
#364 = DIRECTION ( 'NONE',  ( 0.0000000000000000000, 0.0000000000000000000, 1.000000000000000000 ) ) ;
#365 = DIRECTION ( 'NONE',  ( 0.0000000000000000000, 1.000000000000000000, 0.0000000000000000000 ) ) ;
#366 = EDGE_CURVE ( 'NONE', #505, #963, #771, .T. ) ;
#367 = LINE ( 'NONE', #954, #244 ) ;
#368 = FACE_OUTER_BOUND ( 'NONE', #248, .T. ) ;
#369 = DIRECTION ( 'NONE',  ( 1.000000000000000000, 0.0000000000000000000, 0.0000000000000000000 ) ) ;
#370 = ORIENTED_EDGE ( 'NONE', *, *, #727, .T. ) ;
#371 = DIRECTION ( 'NONE',  ( 0.0000000000000000000, 0.0000000000000000000, 1.000000000000000000 ) ) ;
#372 = EDGE_LOOP ( 'NONE', ( #640, #978, #246, #657 ) ) ;
#373 = VERTEX_POINT ( 'NONE', #789 ) ;
#374 = CARTESIAN_POINT ( 'NONE',  ( 0.0000000000000000000, 102.0000000000000000, 7.000000000000000000 ) ) ;
#375 = DIRECTION ( 'NONE',  ( -1.000000000000000000, 0.0000000000000000000, 0.0000000000000000000 ) ) ;
#376 = EDGE_CURVE ( 'NONE', #273, #786, #451, .T. ) ;
#377 = AXIS2_PLACEMENT_3D ( 'NONE', #75, #253, #316 ) ;
#378 = CARTESIAN_POINT ( 'NONE',  ( 13.00000000000000000, 0.0000000000000000000, -3.249999999999971578 ) ) ;
#379 = LINE ( 'NONE', #166, #823 ) ;
#380 = VECTOR ( 'NONE', #550, 1000.000000000000000 ) ;
#381 = EDGE_CURVE ( 'NONE', #963, #842, #750, .T. ) ;
#382 = VECTOR ( 'NONE', #98, 1000.000000000000000 ) ;
#383 = DIRECTION ( 'NONE',  ( 0.0000000000000000000, 1.000000000000000000, 0.0000000000000000000 ) ) ;
#384 = EDGE_LOOP ( 'NONE', ( #851, #775, #737, #311 ) ) ;
#385 = CARTESIAN_POINT ( 'NONE',  ( -1.658312395177700571, 90.00000000000000000, 4.500000000000000888 ) ) ;
#386 = ORIENTED_EDGE ( 'NONE', *, *, #554, .F. ) ;
#387 = DIRECTION ( 'NONE',  ( 0.0000000000000000000, 1.000000000000000000, 0.0000000000000000000 ) ) ;
#388 = ORIENTED_EDGE ( 'NONE', *, *, #162, .F. ) ;
#389 = ADVANCED_FACE ( 'NONE', ( #308 ), #717, .F. ) ;
#390 = DIRECTION ( 'NONE',  ( -0.0000000000000000000, 0.0000000000000000000, 1.000000000000000000 ) ) ;
#391 = CARTESIAN_POINT ( 'NONE',  ( 0.0000000000000000000, 75.50000000000000000, -18.00000000000000355 ) ) ;
#392 = EDGE_CURVE ( 'NONE', #91, #185, #557, .T. ) ;
#393 = DIRECTION ( 'NONE',  ( -0.0000000000000000000, 1.000000000000000000, -0.0000000000000000000 ) ) ;
#394 = DIRECTION ( 'NONE',  ( 1.000000000000000000, 0.0000000000000000000, 0.0000000000000000000 ) ) ;
#395 = DIRECTION ( 'NONE',  ( 1.000000000000000000, 0.0000000000000000000, 0.0000000000000000000 ) ) ;
#396 = ORIENTED_EDGE ( 'NONE', *, *, #874, .T. ) ;
#397 = LINE ( 'NONE', #44, #652 ) ;
#398 = DIRECTION ( 'NONE',  ( 1.000000000000000000, 0.0000000000000000000, 0.0000000000000000000 ) ) ;
#399 = EDGE_CURVE ( 'NONE', #328, #301, #28, .T. ) ;
#400 = LINE ( 'NONE', #20, #812 ) ;
#401 = AXIS2_PLACEMENT_3D ( 'NONE', #445, #522, #45 ) ;
#402 = EDGE_LOOP ( 'NONE', ( #1026, #674, #324, #933 ) ) ;
#403 = ORIENTED_EDGE ( 'NONE', *, *, #998, .F. ) ;
#404 = PRODUCT_DEFINITION ( 'UNKNOWN', '', #588, #519 ) ;
#405 = VERTEX_POINT ( 'NONE', #128 ) ;
#406 = ORIENTED_EDGE ( 'NONE', *, *, #610, .F. ) ;
#407 = DIRECTION ( 'NONE',  ( 0.0000000000000000000, 1.000000000000000000, 0.0000000000000000000 ) ) ;
#408 = CARTESIAN_POINT ( 'NONE',  ( 15.50000000000000000, 0.0000000000000000000, -3.249999999999971578 ) ) ;
#409 = EDGE_CURVE ( 'NONE', #856, #574, #839, .T. ) ;
#410 = SECURITY_CLASSIFICATION_LEVEL ( 'unclassified' ) ;
#411 = COORDINATED_UNIVERSAL_TIME_OFFSET ( 1, 0, .AHEAD. ) ;
#412 = CYLINDRICAL_SURFACE ( 'NONE', #255, 6.000000000000000888 ) ;
#413 = DIRECTION ( 'NONE',  ( -0.0000000000000000000, -1.000000000000000000, -0.0000000000000000000 ) ) ;
#414 = VECTOR ( 'NONE', #279, 1000.000000000000000 ) ;
#415 = PERSON_AND_ORGANIZATION_ROLE ( 'classification_officer' ) ;
#416 = ORIENTED_EDGE ( 'NONE', *, *, #441, .T. ) ;
#417 = VERTEX_POINT ( 'NONE', #541 ) ;
#418 = DIRECTION ( 'NONE',  ( 0.0000000000000000000, 1.000000000000000000, 0.0000000000000000000 ) ) ;
#419 = EDGE_LOOP ( 'NONE', ( #347, #247, #854, #465, #548 ) ) ;
#420 = ADVANCED_FACE ( 'NONE', ( #568 ), #947, .F. ) ;
#421 = DIRECTION ( 'NONE',  ( 0.0000000000000000000, 0.0000000000000000000, 1.000000000000000000 ) ) ;
#422 = CARTESIAN_POINT ( 'NONE',  ( -13.85640646055038516, 75.50000000000000000, 9.999999999999994671 ) ) ;
#423 = ADVANCED_FACE ( 'NONE', ( #1024 ), #704, .F. ) ;
#424 = APPROVAL_STATUS ( 'not_yet_approved' ) ;
#425 = ADVANCED_FACE ( 'NONE', ( #153 ), #950, .T. ) ;
#426 = CARTESIAN_POINT ( 'NONE',  ( 0.0000000000000000000, 87.00000000000000000, 0.9999999999999991118 ) ) ;
#427 = CIRCLE ( 'NONE', #234, 2.000000000000780709 ) ;
#428 = LINE ( 'NONE', #1008, #475 ) ;
#429 = CIRCLE ( 'NONE', #822, 2.000000000000359268 ) ;
#430 = ADVANCED_FACE ( 'NONE', ( #614 ), #581, .T. ) ;
#431 = EDGE_CURVE ( 'NONE', #728, #599, #400, .T. ) ;
#432 = DIRECTION ( 'NONE',  ( 0.0000000000000000000, 0.0000000000000000000, 1.000000000000000000 ) ) ;
#433 = EDGE_CURVE ( 'NONE', #571, #273, #709, .T. ) ;
#434 = AXIS2_PLACEMENT_3D ( 'NONE', #762, #1001, #845 ) ;
#435 = FACE_OUTER_BOUND ( 'NONE', #384, .T. ) ;
#436 = CYLINDRICAL_SURFACE ( 'NONE', #344, 18.00000000000000000 ) ;
#437 = LINE ( 'NONE', #331, #697 ) ;
#438 = DIRECTION ( 'NONE',  ( -0.0000000000000000000, -1.000000000000000000, -0.0000000000000000000 ) ) ;
#439 = DIRECTION ( 'NONE',  ( 0.0000000000000000000, -0.0000000000000000000, 1.000000000000000000 ) ) ;
#440 = VERTEX_POINT ( 'NONE', #666 ) ;
#441 = EDGE_CURVE ( 'NONE', #608, #953, #736, .T. ) ;
#442 = ORIENTED_EDGE ( 'NONE', *, *, #901, .T. ) ;
#443 = PLANE ( 'NONE',  #827 ) ;
#444 = PLANE ( 'NONE',  #46 ) ;
#445 = CARTESIAN_POINT ( 'NONE',  ( 0.0000000000000000000, 77.00000000000000000, 0.0000000000000000000 ) ) ;
#446 = EDGE_CURVE ( 'NONE', #571, #120, #971, .T. ) ;
#447 = AXIS2_PLACEMENT_3D ( 'NONE', #781, #277, #620 ) ;
#448 = CARTESIAN_POINT ( 'NONE',  ( -13.85640646055038516, 63.50000000000000000, 9.999999999999994671 ) ) ;
#449 = CYLINDRICAL_SURFACE ( 'NONE', #696, 2.000000000000780709 ) ;
#450 = CARTESIAN_POINT ( 'NONE',  ( 0.0000000000000000000, 63.50000000000000000, -16.00000000000000000 ) ) ;
#451 = CIRCLE ( 'NONE', #8, 17.99999999999999645 ) ;
#452 = VECTOR ( 'NONE', #413, 1000.000000000000000 ) ;
#453 = DIRECTION ( 'NONE',  ( 0.0000000000000000000, 0.0000000000000000000, 1.000000000000000000 ) ) ;
#454 = CARTESIAN_POINT ( 'NONE',  ( 13.00000000000000000, -2.000000000000000000, 3.250000000000027978 ) ) ;
#455 = ORIENTED_EDGE ( 'NONE', *, *, #764, .F. ) ;
#456 = ORIENTED_EDGE ( 'NONE', *, *, #764, .T. ) ;
#457 = DIRECTION ( 'NONE',  ( 0.0000000000000000000, 0.0000000000000000000, -1.000000000000000000 ) ) ;
#458 = CC_DESIGN_APPROVAL ( #531, ( #404 ) ) ;
#459 = CARTESIAN_POINT ( 'NONE',  ( 0.0000000000000000000, 75.50000000000000000, 0.0000000000000000000 ) ) ;
#460 = CARTESIAN_POINT ( 'NONE',  ( 1.658312395177700571, 90.00000000000000000, 4.500000000000000888 ) ) ;
#461 = DIRECTION ( 'NONE',  ( 0.0000000000000000000, 1.000000000000000000, 0.0000000000000000000 ) ) ;
#462 = ORIENTED_EDGE ( 'NONE', *, *, #105, .F. ) ;
#463 = EDGE_CURVE ( 'NONE', #631, #79, #99, .T. ) ;
#464 = FACE_BOUND ( 'NONE', #628, .T. ) ;
#465 = ORIENTED_EDGE ( 'NONE', *, *, #535, .F. ) ;
#466 = DIRECTION ( 'NONE',  ( -0.0000000000000000000, 1.000000000000000000, -0.0000000000000000000 ) ) ;
#467 = ORIENTED_EDGE ( 'NONE', *, *, #463, .F. ) ;
#468 = ORIENTED_EDGE ( 'NONE', *, *, #296, .T. ) ;
#469 = ORIENTED_EDGE ( 'NONE', *, *, #14, .T. ) ;
#470 = DIRECTION ( 'NONE',  ( -0.0000000000000000000, 1.000000000000000000, -0.0000000000000000000 ) ) ;
#471 = DIRECTION ( 'NONE',  ( 0.0000000000000000000, 0.0000000000000000000, 1.000000000000000000 ) ) ;
#472 = ADVANCED_FACE ( 'NONE', ( #1002 ), #958, .F. ) ;
#473 = APPROVAL_DATE_TIME ( #192, #183 ) ;
#474 = LINE ( 'NONE', #141, #637 ) ;
#475 = VECTOR ( 'NONE', #690, 1000.000000000000000 ) ;
#476 = ADVANCED_FACE ( 'NONE', ( #368 ), #890, .T. ) ;
#477 = CARTESIAN_POINT ( 'NONE',  ( 15.50000000000000000, -2.000000000000000000, 3.250000000000027978 ) ) ;
#478 = LINE ( 'NONE', #4, #452 ) ;
#479 = DIRECTION ( 'NONE',  ( 0.0000000000000000000, -0.0000000000000000000, 1.000000000000000000 ) ) ;
#480 = ORIENTED_EDGE ( 'NONE', *, *, #956, .T. ) ;
#481 = DIRECTION ( 'NONE',  ( 0.0000000000000000000, 0.0000000000000000000, 1.000000000000000000 ) ) ;
#482 = EDGE_CURVE ( 'NONE', #631, #608, #759, .T. ) ;
#483 = ADVANCED_FACE ( 'NONE', ( #320 ), #943, .T. ) ;
#484 = PRODUCT ( 'motor eje z_Predeterminado_sldprt', 'motor eje z_Predeterminado_sldprt', '', ( #653 ) ) ;
#485 = ORIENTED_EDGE ( 'NONE', *, *, #874, .F. ) ;
#486 = DIRECTION ( 'NONE',  ( 0.0000000000000000000, 0.0000000000000000000, -1.000000000000000000 ) ) ;
#487 = PERSON_AND_ORGANIZATION ( #645, #243 ) ;
#488 = CARTESIAN_POINT ( 'NONE',  ( 2.204364238465235428E-15, 75.50000000000000000, 18.00000000000000000 ) ) ;
#489 = EDGE_CURVE ( 'NONE', #79, #405, #356, .T. ) ;
#490 = LINE ( 'NONE', #623, #206 ) ;
#491 = AXIS2_PLACEMENT_3D ( 'NONE', #291, #354, #287 ) ;
#492 = ORIENTED_EDGE ( 'NONE', *, *, #14, .F. ) ;
#493 = ORIENTED_EDGE ( 'NONE', *, *, #264, .F. ) ;
#494 = DIRECTION ( 'NONE',  ( -0.0000000000000000000, -1.000000000000000000, -0.0000000000000000000 ) ) ;
#495 = EDGE_LOOP ( 'NONE', ( #359, #806, #902, #930 ) ) ;
#496 = CARTESIAN_POINT ( 'NONE',  ( -15.58845726811989252, 75.50000000000000000, 9.000000000000000000 ) ) ;
#497 = EDGE_CURVE ( 'NONE', #373, #42, #295, .T. ) ;
#498 = CARTESIAN_POINT ( 'NONE',  ( -13.85640646055038516, 75.50000000000000000, 7.999999999999635847 ) ) ;
#499 = ADVANCED_FACE ( 'NONE', ( #796 ), #804, .F. ) ;
#500 = CARTESIAN_POINT ( 'NONE',  ( 0.0000000000000000000, 57.00000000000000000, 0.0000000000000000000 ) ) ;
#501 = PERSON_AND_ORGANIZATION ( #645, #243 ) ;
#502 = VECTOR ( 'NONE', #818, 1000.000000000000000 ) ;
#503 = CYLINDRICAL_SURFACE ( 'NONE', #343, 2.000000000000358380 ) ;
#504 = EDGE_CURVE ( 'NONE', #932, #987, #862, .T. ) ;
#505 = VERTEX_POINT ( 'NONE', #678 ) ;
#506 = ORIENTED_EDGE ( 'NONE', *, *, #741, .F. ) ;
#507 = ADVANCED_FACE ( 'NONE', ( #204 ), #1023, .T. ) ;
#508 = EDGE_CURVE ( 'NONE', #373, #571, #983, .T. ) ;
#509 = AXIS2_PLACEMENT_3D ( 'NONE', #712, #303, #868 ) ;
#510 = DIRECTION ( 'NONE',  ( -1.000000000000000000, 0.0000000000000000000, 0.0000000000000000000 ) ) ;
#511 = SECURITY_CLASSIFICATION ( '', '', #410 ) ;
#512 = CIRCLE ( 'NONE', #967, 2.000000000000780709 ) ;
#513 = CARTESIAN_POINT ( 'NONE',  ( 13.00000000000000000, 0.0000000000000000000, -3.249999999999971578 ) ) ;
#514 = VECTOR ( 'NONE', #558, 1000.000000000000000 ) ;
#515 = CIRCLE ( 'NONE', #317, 6.000000000000000888 ) ;
#516 = EDGE_CURVE ( 'NONE', #505, #763, #794, .T. ) ;
#517 = ORIENTED_EDGE ( 'NONE', *, *, #1029, .T. ) ;
#518 = AXIS2_PLACEMENT_3D ( 'NONE', #648, #390, #394 ) ;
#519 = DESIGN_CONTEXT ( 'detailed design', #172, 'design' ) ;
#520 = ORIENTED_EDGE ( 'NONE', *, *, #727, .F. ) ;
#521 = CARTESIAN_POINT ( 'NONE',  ( 13.00000000000000000, -2.000000000000000000, -3.249999999999971578 ) ) ;
#522 = DIRECTION ( 'NONE',  ( -0.0000000000000000000, -1.000000000000000000, -0.0000000000000000000 ) ) ;
#523 = DATE_AND_TIME ( #746, #254 ) ;
#524 = VECTOR ( 'NONE', #457, 1000.000000000000000 ) ;
#525 = FACE_OUTER_BOUND ( 'NONE', #186, .T. ) ;
#526 = ORIENTED_EDGE ( 'NONE', *, *, #792, .F. ) ;
#527 = DIRECTION ( 'NONE',  ( -0.0000000000000000000, 1.000000000000000000, -0.0000000000000000000 ) ) ;
#528 = AXIS2_PLACEMENT_3D ( 'NONE', #180, #669, #927 ) ;
#529 = EDGE_LOOP ( 'NONE', ( #299, #921, #686, #41, #1030, #284, #733, #386, #739, #339, #952, #462 ) ) ;
#530 = CARTESIAN_POINT ( 'NONE',  ( 13.85640646055101577, 75.50000000000000000, 7.999999999999273470 ) ) ;
#531 = APPROVAL ( #672, 'UNSPECIFIED' ) ;
#532 = DIRECTION ( 'NONE',  ( 0.0000000000000000000, 1.000000000000000000, 0.0000000000000000000 ) ) ;
#533 = CARTESIAN_POINT ( 'NONE',  ( 13.85640646055101577, 75.50000000000000000, 5.999999999998492761 ) ) ;
#534 = CARTESIAN_POINT ( 'NONE',  ( 0.0000000000000000000, 102.0000000000000000, 7.000000000000000000 ) ) ;
#535 = EDGE_CURVE ( 'NONE', #273, #536, #627, .T. ) ;
#536 = VERTEX_POINT ( 'NONE', #38 ) ;
#537 = DATE_AND_TIME ( #929, #757 ) ;
#538 = AXIS2_PLACEMENT_3D ( 'NONE', #543, #703, #622 ) ;
#539 = CARTESIAN_POINT ( 'NONE',  ( -15.58845726811989252, 63.50000000000000000, 9.000000000000000000 ) ) ;
#540 = CYLINDRICAL_SURFACE ( 'NONE', #1022, 6.000000000000000888 ) ;
#541 = CARTESIAN_POINT ( 'NONE',  ( 15.58845726812024779, 75.50000000000000000, 8.999999999999387157 ) ) ;
#542 = LINE ( 'NONE', #90, #889 ) ;
#543 = CARTESIAN_POINT ( 'NONE',  ( 0.0000000000000000000, 63.50000000000000000, 0.0000000000000000000 ) ) ;
#544 = VERTEX_POINT ( 'NONE', #426 ) ;
#545 = ORIENTED_EDGE ( 'NONE', *, *, #972, .F. ) ;
#546 = PLANE ( 'NONE',  #126 ) ;
#547 = EDGE_CURVE ( 'NONE', #987, #932, #959, .T. ) ;
#548 = ORIENTED_EDGE ( 'NONE', *, *, #779, .F. ) ;
#549 = AXIS2_PLACEMENT_3D ( 'NONE', #160, #734, #182 ) ;
#550 = DIRECTION ( 'NONE',  ( -0.0000000000000000000, -1.000000000000000000, -0.0000000000000000000 ) ) ;
#551 = DIRECTION ( 'NONE',  ( -0.0000000000000000000, 0.0000000000000000000, -1.000000000000000000 ) ) ;
#552 = DIRECTION ( 'NONE',  ( 0.0000000000000000000, 0.0000000000000000000, -1.000000000000000000 ) ) ;
#553 = DIRECTION ( 'NONE',  ( 0.0000000000000000000, 1.000000000000000000, -0.0000000000000000000 ) ) ;
#554 = EDGE_CURVE ( 'NONE', #684, #236, #838, .T. ) ;
#555 = VECTOR ( 'NONE', #9, 1000.000000000000000 ) ;
#556 = VECTOR ( 'NONE', #1020, 1000.000000000000000 ) ;
#557 = LINE ( 'NONE', #454, #336 ) ;
#558 = DIRECTION ( 'NONE',  ( 0.0000000000000000000, 0.0000000000000000000, 1.000000000000000000 ) ) ;
#559 = ORIENTED_EDGE ( 'NONE', *, *, #156, .F. ) ;
#560 = ORIENTED_EDGE ( 'NONE', *, *, #207, .T. ) ;
#561 = DIRECTION ( 'NONE',  ( 0.0000000000000000000, 0.0000000000000000000, 1.000000000000000000 ) ) ;
#562 = EDGE_CURVE ( 'NONE', #342, #544, #215, .T. ) ;
#563 = DIRECTION ( 'NONE',  ( 0.0000000000000000000, 0.0000000000000000000, -1.000000000000000000 ) ) ;
#564 = VERTEX_POINT ( 'NONE', #513 ) ;
#565 = COORDINATED_UNIVERSAL_TIME_OFFSET ( 1, 0, .AHEAD. ) ;
#566 = AXIS2_PLACEMENT_3D ( 'NONE', #756, #995, #30 ) ;
#567 = PLANE ( 'NONE',  #549 ) ;
#568 = FACE_OUTER_BOUND ( 'NONE', #716, .T. ) ;
#569 = PRODUCT_RELATED_PRODUCT_CATEGORY ( 'detail', '', ( #484 ) ) ;
#570 = CARTESIAN_POINT ( 'NONE',  ( 13.85640646055101577, 75.50000000000000000, 5.999999999998492761 ) ) ;
#571 = VERTEX_POINT ( 'NONE', #591 ) ;
#572 = ORIENTED_EDGE ( 'NONE', *, *, #323, .F. ) ;
#573 = CARTESIAN_POINT ( 'NONE',  ( 0.0000000000000000000, 63.50000000000000000, -16.00000000000000000 ) ) ;
#574 = VERTEX_POINT ( 'NONE', #268 ) ;
#575 = CARTESIAN_POINT ( 'NONE',  ( -13.85640646055038516, 75.50000000000000000, 7.999999999999635847 ) ) ;
#576 = EDGE_CURVE ( 'NONE', #185, #564, #1051, .T. ) ;
#577 = APPLICATION_CONTEXT ( 'configuration controlled 3d designs of mechanical parts and assemblies' ) ;
#578 = DIRECTION ( 'NONE',  ( 0.0000000000000000000, 0.0000000000000000000, 1.000000000000000000 ) ) ;
#579 =( NAMED_UNIT ( * ) PLANE_ANGLE_UNIT ( ) SI_UNIT ( $, .RADIAN. ) );
#580 = CIRCLE ( 'NONE', #538, 17.99999999999999645 ) ;
#581 = CYLINDRICAL_SURFACE ( 'NONE', #618, 2.000000000000780709 ) ;
#582 = CARTESIAN_POINT ( 'NONE',  ( -15.50000000000000178, -2.000000000000000000, 3.249999999999998668 ) ) ;
#583 = VERTEX_POINT ( 'NONE', #924 ) ;
#584 = ORIENTED_EDGE ( 'NONE', *, *, #134, .T. ) ;
#585 = ADVANCED_FACE ( 'NONE', ( #72 ), #449, .T. ) ;
#586 = ORIENTED_EDGE ( 'NONE', *, *, #554, .T. ) ;
#587 = CARTESIAN_POINT ( 'NONE',  ( 0.0000000000000000000, 57.00000000000000000, -18.00000000000000000 ) ) ;
#588 = PRODUCT_DEFINITION_FORMATION_WITH_SPECIFIED_SOURCE ( 'ANY', '', #484, .NOT_KNOWN. ) ;
#589 = ADVANCED_FACE ( 'NONE', ( #849 ), #769, .T. ) ;
#590 = DIRECTION ( 'NONE',  ( 1.000000000000000000, 0.0000000000000000000, 0.0000000000000000000 ) ) ;
#591 = CARTESIAN_POINT ( 'NONE',  ( 0.0000000000000000000, 75.50000000000000000, -18.00000000000000000 ) ) ;
#592 = LINE ( 'NONE', #378, #61 ) ;
#593 = VECTOR ( 'NONE', #701, 1000.000000000000000 ) ;
#594 = EDGE_CURVE ( 'NONE', #440, #216, #13, .T. ) ;
#595 = ORIENTED_EDGE ( 'NONE', *, *, #366, .F. ) ;
#596 = DIRECTION ( 'NONE',  ( -0.0000000000000000000, -1.000000000000000000, -0.0000000000000000000 ) ) ;
#597 = VERTEX_POINT ( 'NONE', #362 ) ;
#598 = ORIENTED_EDGE ( 'NONE', *, *, #689, .T. ) ;
#599 = VERTEX_POINT ( 'NONE', #26 ) ;
#600 = CARTESIAN_POINT ( 'NONE',  ( 13.85640646055101577, 75.50000000000000000, 10.00000000000005329 ) ) ;
#601 = LINE ( 'NONE', #893, #555 ) ;
#602 = CIRCLE ( 'NONE', #966, 2.000000000000001776 ) ;
#603 = DIRECTION ( 'NONE',  ( 0.0000000000000000000, 0.0000000000000000000, 1.000000000000000000 ) ) ;
#604 = ORIENTED_EDGE ( 'NONE', *, *, #895, .T. ) ;
#605 = ORIENTED_EDGE ( 'NONE', *, *, #617, .F. ) ;
#606 = EDGE_CURVE ( 'NONE', #417, #571, #811, .T. ) ;
#607 = CARTESIAN_POINT ( 'NONE',  ( 13.85640646055101577, 75.50000000000000000, 10.00000000000005329 ) ) ;
#608 = VERTEX_POINT ( 'NONE', #56 ) ;
#609 = CARTESIAN_POINT ( 'NONE',  ( 0.0000000000000000000, 75.50000000000000000, -16.00000000000000000 ) ) ;
#610 = EDGE_CURVE ( 'NONE', #763, #842, #722, .T. ) ;
#611 = DIRECTION ( 'NONE',  ( 0.0000000000000000000, 0.0000000000000000000, 1.000000000000000000 ) ) ;
#612 = CIRCLE ( 'NONE', #770, 18.00000000000000000 ) ;
#613 = CALENDAR_DATE ( 2020, 7, 7 ) ;
#614 = FACE_OUTER_BOUND ( 'NONE', #235, .T. ) ;
#615 = CARTESIAN_POINT ( 'NONE',  ( 0.0000000000000000000, 87.00000000000000000, 0.9999999999999991118 ) ) ;
#616 = VERTEX_POINT ( 'NONE', #448 ) ;
#617 = EDGE_CURVE ( 'NONE', #544, #856, #282, .T. ) ;
#618 = AXIS2_PLACEMENT_3D ( 'NONE', #828, #309, #174 ) ;
#619 = ORIENTED_EDGE ( 'NONE', *, *, #376, .F. ) ;
#620 = DIRECTION ( 'NONE',  ( 0.0000000000000000000, 0.0000000000000000000, -1.000000000000000000 ) ) ;
#621 = DIRECTION ( 'NONE',  ( 0.0000000000000000000, 1.000000000000000000, 0.0000000000000000000 ) ) ;
#622 = DIRECTION ( 'NONE',  ( 0.0000000000000000000, 0.0000000000000000000, 1.000000000000000000 ) ) ;
#623 = CARTESIAN_POINT ( 'NONE',  ( -15.50000000000000178, -0.0000000000000000000, -3.250000000000001332 ) ) ;
#624 = EDGE_CURVE ( 'NONE', #101, #583, #693, .T. ) ;
#625 = COORDINATED_UNIVERSAL_TIME_OFFSET ( 1, 0, .AHEAD. ) ;
#626 = DIRECTION ( 'NONE',  ( 0.0000000000000000000, 1.000000000000000000, 0.0000000000000000000 ) ) ;
#627 = LINE ( 'NONE', #587, #875 ) ;
#628 = EDGE_LOOP ( 'NONE', ( #176, #6, #879, #1028 ) ) ;
#629 = VERTEX_POINT ( 'NONE', #119 ) ;
#630 = CARTESIAN_POINT ( 'NONE',  ( -15.50000000000000178, -2.000000000000000000, -3.250000000000001332 ) ) ;
#631 = VERTEX_POINT ( 'NONE', #698 ) ;
#632 = ORIENTED_EDGE ( 'NONE', *, *, #125, .F. ) ;
#633 = ORIENTED_EDGE ( 'NONE', *, *, #624, .T. ) ;
#634 = PLANE ( 'NONE',  #17 ) ;
#635 = AXIS2_PLACEMENT_3D ( 'NONE', #260, #931, #341 ) ;
#636 = MANIFOLD_SOLID_BREP ( 'Saliente-Extruir7', #706 ) ;
#637 = VECTOR ( 'NONE', #871, 1000.000000000000000 ) ;
#638 = CIRCLE ( 'NONE', #650, 3.000000000000000000 ) ;
#639 = CARTESIAN_POINT ( 'NONE',  ( 15.50000000000000000, -2.000000000000000000, -3.249999999999971578 ) ) ;
#640 = ORIENTED_EDGE ( 'NONE', *, *, #792, .T. ) ;
#641 = DIRECTION ( 'NONE',  ( 0.0000000000000000000, 0.0000000000000000000, -1.000000000000000000 ) ) ;
#642 = DIRECTION ( 'NONE',  ( 0.0000000000000000000, 0.0000000000000000000, 1.000000000000000000 ) ) ;
#643 = ORIENTED_EDGE ( 'NONE', *, *, #350, .T. ) ;
#644 = AXIS2_PLACEMENT_3D ( 'NONE', #884, #387, #479 ) ;
#645 = PERSON ( 'UNSPECIFIED', 'UNSPECIFIED', 'UNSPECIFIED', ('UNSPECIFIED'), ('UNSPECIFIED'), ('UNSPECIFIED') ) ;
#646 = DIRECTION ( 'NONE',  ( 0.0000000000000000000, -0.0000000000000000000, 1.000000000000000000 ) ) ;
#647 = ORIENTED_EDGE ( 'NONE', *, *, #660, .F. ) ;
#648 = CARTESIAN_POINT ( 'NONE',  ( 13.00000000000000000, -2.000000000000000000, -3.249999999999971578 ) ) ;
#649 = COORDINATED_UNIVERSAL_TIME_OFFSET ( 1, 0, .AHEAD. ) ;
#650 = AXIS2_PLACEMENT_3D ( 'NONE', #534, #1027, #64 ) ;
#651 = CARTESIAN_POINT ( 'NONE',  ( -15.50000000000000178, 0.0000000000000000000, -3.250000000000001332 ) ) ;
#652 = VECTOR ( 'NONE', #438, 1000.000000000000000 ) ;
#653 = MECHANICAL_CONTEXT ( 'NONE', #577, 'mechanical' ) ;
#654 = CIRCLE ( 'NONE', #677, 18.00000000000000000 ) ;
#655 = EDGE_LOOP ( 'NONE', ( #865, #1037, #122, #559, #492, #327 ) ) ;
#656 = DIRECTION ( 'NONE',  ( 0.0000000000000000000, 1.000000000000000000, 0.0000000000000000000 ) ) ;
#657 = ORIENTED_EDGE ( 'NONE', *, *, #218, .T. ) ;
#658 = EDGE_LOOP ( 'NONE', ( #991, #777 ) ) ;
#659 = CARTESIAN_POINT ( 'NONE',  ( -13.85640646055038516, 63.50000000000000000, 5.999999999999277911 ) ) ;
#660 = EDGE_CURVE ( 'NONE', #892, #286, #165, .T. ) ;
#661 = CARTESIAN_POINT ( 'NONE',  ( -13.00000000000000178, -2.000000000000000000, 3.249999999999998668 ) ) ;
#662 = DIRECTION ( 'NONE',  ( -0.0000000000000000000, -1.000000000000000000, -0.0000000000000000000 ) ) ;
#663 = CC_DESIGN_APPROVAL ( #183, ( #588 ) ) ;
#664 = ADVANCED_FACE ( 'NONE', ( #193 ), #443, .F. ) ;
#665 = PERSON_AND_ORGANIZATION_ROLE ( 'design_owner' ) ;
#666 = CARTESIAN_POINT ( 'NONE',  ( 2.204364238465235033E-15, 63.50000000000000000, 17.99999999999999645 ) ) ;
#667 = EDGE_CURVE ( 'NONE', #1042, #786, #941, .T. ) ;
#668 = VECTOR ( 'NONE', #189, 1000.000000000000000 ) ;
#669 = DIRECTION ( 'NONE',  ( 0.0000000000000000000, 1.000000000000000000, 0.0000000000000000000 ) ) ;
#670 = CIRCLE ( 'NONE', #843, 6.000000000000000888 ) ;
#671 = CYLINDRICAL_SURFACE ( 'NONE', #97, 2.000000000000358380 ) ;
#672 = APPROVAL_STATUS ( 'not_yet_approved' ) ;
#673 = CARTESIAN_POINT ( 'NONE',  ( 13.00000000000000000, 0.0000000000000000000, 3.250000000000027978 ) ) ;
#674 = ORIENTED_EDGE ( 'NONE', *, *, #1029, .F. ) ;
#675 = ORIENTED_EDGE ( 'NONE', *, *, #446, .F. ) ;
#676 = EDGE_CURVE ( 'NONE', #571, #373, #602, .T. ) ;
#677 = AXIS2_PLACEMENT_3D ( 'NONE', #249, #738, #250 ) ;
#678 = CARTESIAN_POINT ( 'NONE',  ( -1.658312395177700571, 90.00000000000000000, 4.500000000000000888 ) ) ;
#679 = DIRECTION ( 'NONE',  ( 0.0000000000000000000, 0.0000000000000000000, -1.000000000000000000 ) ) ;
#680 = APPROVAL_DATE_TIME ( #523, #531 ) ;
#681 = CIRCLE ( 'NONE', #904, 3.000000000000000000 ) ;
#682 = EDGE_CURVE ( 'NONE', #216, #684, #427, .T. ) ;
#683 = CIRCLE ( 'NONE', #986, 2.000000000000780709 ) ;
#684 = VERTEX_POINT ( 'NONE', #772 ) ;
#685 = DIRECTION ( 'NONE',  ( 0.0000000000000000000, 1.000000000000000000, 0.0000000000000000000 ) ) ;
#686 = ORIENTED_EDGE ( 'NONE', *, *, #65, .F. ) ;
#687 = ORIENTED_EDGE ( 'NONE', *, *, #102, .T. ) ;
#688 = CARTESIAN_POINT ( 'NONE',  ( 0.0000000000000000000, 75.50000000000000000, 0.0000000000000000000 ) ) ;
#689 = EDGE_CURVE ( 'NONE', #932, #571, #397, .T. ) ;
#690 = DIRECTION ( 'NONE',  ( -0.0000000000000000000, 1.000000000000000000, -0.0000000000000000000 ) ) ;
#691 = LOCAL_TIME ( 13, 17, 14.00000000000000000, #625 ) ;
#692 = DIRECTION ( 'NONE',  ( 0.0000000000000000000, 0.0000000000000000000, 1.000000000000000000 ) ) ;
#693 = CIRCLE ( 'NONE', #714, 2.000000000000359268 ) ;
#694 = CARTESIAN_POINT ( 'NONE',  ( 0.0000000000000000000, 87.00000000000000000, 4.000000000000000000 ) ) ;
#695 = FACE_OUTER_BOUND ( 'NONE', #265, .T. ) ;
#696 = AXIS2_PLACEMENT_3D ( 'NONE', #34, #263, #841 ) ;
#697 = VECTOR ( 'NONE', #662, 1000.000000000000000 ) ;
#698 = CARTESIAN_POINT ( 'NONE',  ( -13.00000000000000178, -2.000000000000000000, -3.250000000000001332 ) ) ;
#699 = CC_DESIGN_DATE_AND_TIME_ASSIGNMENT ( #938, #252, ( #404 ) ) ;
#700 = DIRECTION ( 'NONE',  ( 0.0000000000000000000, -0.0000000000000000000, -1.000000000000000000 ) ) ;
#701 = DIRECTION ( 'NONE',  ( 1.000000000000000000, 0.0000000000000000000, 0.0000000000000000000 ) ) ;
#702 = EDGE_CURVE ( 'NONE', #120, #934, #612, .T. ) ;
#703 = DIRECTION ( 'NONE',  ( 0.0000000000000000000, 1.000000000000000000, 0.0000000000000000000 ) ) ;
#704 = PLANE ( 'NONE',  #935 ) ;
#705 = ORIENTED_EDGE ( 'NONE', *, *, #441, .F. ) ;
#706 = CLOSED_SHELL ( 'NONE', ( #507, #988, #223, #175, #430, #744, #833, #882, #425, #23, #483, #585, #140, #589, #173, #420, #912, #170, #909, #476, #423, #251, #499, #832, #389, #664, #259, #335, #996, #919, #472, #103 ) ) ;
#707 = PERSON_AND_ORGANIZATION ( #645, #243 ) ;
#708 = UNCERTAINTY_MEASURE_WITH_UNIT (LENGTH_MEASURE( 1.000000000000000082E-05 ), #25, 'distance_accuracy_value', 'NONE');
#709 = LINE ( 'NONE', #391, #382 ) ;
#710 = CARTESIAN_POINT ( 'NONE',  ( 0.0000000000000000000, 0.0000000000000000000, 0.0000000000000000000 ) ) ;
#711 = ORIENTED_EDGE ( 'NONE', *, *, #392, .F. ) ;
#712 = CARTESIAN_POINT ( 'NONE',  ( 0.0000000000000000000, 77.00000000000000000, 7.000000000000000000 ) ) ;
#713 = ORIENTED_EDGE ( 'NONE', *, *, #815, .T. ) ;
#714 = AXIS2_PLACEMENT_3D ( 'NONE', #939, #1018, #859 ) ;
#715 = DIRECTION ( 'NONE',  ( -1.000000000000000000, 0.0000000000000000000, 0.0000000000000000000 ) ) ;
#716 = EDGE_LOOP ( 'NONE', ( #675, #154, #15, #55, #604, #36, #788, #455, #144, #396, #633, #584 ) ) ;
#717 = PLANE ( 'NONE',  #201 ) ;
#718 = DIRECTION ( 'NONE',  ( 1.000000000000000000, 0.0000000000000000000, 0.0000000000000000000 ) ) ;
#719 = AXIS2_PLACEMENT_3D ( 'NONE', #108, #111, #510 ) ;
#720 = VECTOR ( 'NONE', #494, 1000.000000000000000 ) ;
#721 = CARTESIAN_POINT ( 'NONE',  ( 2.449293598294708880E-16, 75.50000000000000000, -13.99999999999999822 ) ) ;
#722 = LINE ( 'NONE', #753, #414 ) ;
#723 = FACE_BOUND ( 'NONE', #993, .T. ) ;
#724 = DIRECTION ( 'NONE',  ( -0.0000000000000000000, -1.000000000000000000, -0.0000000000000000000 ) ) ;
#725 = ORIENTED_EDGE ( 'NONE', *, *, #836, .F. ) ;
#726 = DIRECTION ( 'NONE',  ( 0.0000000000000000000, 0.0000000000000000000, -1.000000000000000000 ) ) ;
#727 = EDGE_CURVE ( 'NONE', #892, #684, #269, .T. ) ;
#728 = VERTEX_POINT ( 'NONE', #521 ) ;
#729 = CARTESIAN_POINT ( 'NONE',  ( -15.50000000000000178, -2.000000000000000000, 3.249999999999998668 ) ) ;
#730 = DIRECTION ( 'NONE',  ( 0.0000000000000000000, -0.0000000000000000000, 1.000000000000000000 ) ) ;
#731 = DIRECTION ( 'NONE',  ( 0.0000000000000000000, 0.0000000000000000000, -1.000000000000000000 ) ) ;
#732 = AXIS2_PLACEMENT_3D ( 'NONE', #920, #348, #432 ) ;
#733 = ORIENTED_EDGE ( 'NONE', *, *, #84, .F. ) ;
#734 = DIRECTION ( 'NONE',  ( 0.0000000000000000000, 1.000000000000000000, 0.0000000000000000000 ) ) ;
#735 = DIRECTION ( 'NONE',  ( 0.0000000000000000000, 1.000000000000000000, 0.0000000000000000000 ) ) ;
#736 = LINE ( 'NONE', #661, #117 ) ;
#737 = ORIENTED_EDGE ( 'NONE', *, *, #869, .F. ) ;
#738 = DIRECTION ( 'NONE',  ( 0.0000000000000000000, 1.000000000000000000, 0.0000000000000000000 ) ) ;
#739 = ORIENTED_EDGE ( 'NONE', *, *, #682, .F. ) ;
#740 = ORIENTED_EDGE ( 'NONE', *, *, #330, .T. ) ;
#741 = EDGE_CURVE ( 'NONE', #104, #185, #474, .T. ) ;
#742 = EDGE_LOOP ( 'NONE', ( #155, #880, #598, #761, #198 ) ) ;
#743 = DIRECTION ( 'NONE',  ( 0.0000000000000000000, 0.0000000000000000000, 1.000000000000000000 ) ) ;
#744 = ADVANCED_FACE ( 'NONE', ( #1036 ), #256, .T. ) ;
#745 =( NAMED_UNIT ( * ) SI_UNIT ( $, .STERADIAN. ) SOLID_ANGLE_UNIT ( ) );
#746 = CALENDAR_DATE ( 2020, 7, 7 ) ;
#747 = CARTESIAN_POINT ( 'NONE',  ( -13.85640646055038516, 75.50000000000000000, 7.999999999999635847 ) ) ;
#748 = FACE_OUTER_BOUND ( 'NONE', #197, .T. ) ;
#749 = PERSON_AND_ORGANIZATION_ROLE ( 'creator' ) ;
#750 = LINE ( 'NONE', #797, #593 ) ;
#751 = EDGE_LOOP ( 'NONE', ( #905, #313, #89, #33 ) ) ;
#752 = EDGE_LOOP ( 'NONE', ( #480, #545, #43, #351 ) ) ;
#753 = CARTESIAN_POINT ( 'NONE',  ( 1.658312395177700571, 90.00000000000000000, 4.500000000000000888 ) ) ;
#754 = AXIS2_PLACEMENT_3D ( 'NONE', #710, #239, #646 ) ;
#755 = APPROVAL_ROLE ( '' ) ;
#756 = CARTESIAN_POINT ( 'NONE',  ( 0.0000000000000000000, 75.50000000000000000, -16.00000000000000000 ) ) ;
#757 = LOCAL_TIME ( 13, 17, 14.00000000000000000, #565 ) ;
#758 = EDGE_CURVE ( 'NONE', #286, #417, #887, .T. ) ;
#759 = LINE ( 'NONE', #810, #167 ) ;
#760 = CIRCLE ( 'NONE', #1021, 2.000000000000359268 ) ;
#761 = ORIENTED_EDGE ( 'NONE', *, *, #446, .T. ) ;
#762 = CARTESIAN_POINT ( 'NONE',  ( 0.0000000000000000000, 77.00000000000000000, 0.0000000000000000000 ) ) ;
#763 = VERTEX_POINT ( 'NONE', #460 ) ;
#764 = EDGE_CURVE ( 'NONE', #934, #417, #228, .T. ) ;
#765 = AXIS2_PLACEMENT_3D ( 'NONE', #530, #857, #611 ) ;
#766 = DIRECTION ( 'NONE',  ( -0.0000000000000000000, -1.000000000000000000, -0.0000000000000000000 ) ) ;
#767 = CARTESIAN_POINT ( 'NONE',  ( 13.00000000000000000, -2.000000000000000000, -3.249999999999971578 ) ) ;
#768 = LINE ( 'NONE', #997, #114 ) ;
#769 = CYLINDRICAL_SURFACE ( 'NONE', #434, 18.00000000000000000 ) ;
#770 = AXIS2_PLACEMENT_3D ( 'NONE', #688, #358, #195 ) ;
#771 = LINE ( 'NONE', #385, #139 ) ;
#772 = CARTESIAN_POINT ( 'NONE',  ( 13.85640646055101577, 63.50000000000000000, 5.999999999998492761 ) ) ;
#773 = ORIENTED_EDGE ( 'NONE', *, *, #59, .F. ) ;
#774 = ORIENTED_EDGE ( 'NONE', *, *, #1050, .F. ) ;
#775 = ORIENTED_EDGE ( 'NONE', *, *, #218, .F. ) ;
#776 = CARTESIAN_POINT ( 'NONE',  ( -13.85640646055038516, 63.50000000000000000, 7.999999999999635847 ) ) ;
#777 = ORIENTED_EDGE ( 'NONE', *, *, #562, .T. ) ;
#778 = CARTESIAN_POINT ( 'NONE',  ( 13.00000000000000000, 0.0000000000000000000, 3.250000000000027978 ) ) ;
#779 = EDGE_CURVE ( 'NONE', #216, #273, #580, .T. ) ;
#780 = PERSON_AND_ORGANIZATION ( #645, #243 ) ;
#781 = CARTESIAN_POINT ( 'NONE',  ( 0.0000000000000000000, 75.50000000000000000, -16.00000000000000000 ) ) ;
#782 = PERSON_AND_ORGANIZATION ( #645, #243 ) ;
#783 = EDGE_CURVE ( 'NONE', #831, #171, #178, .T. ) ;
#784 = VECTOR ( 'NONE', #285, 1000.000000000000000 ) ;
#785 = AXIS2_PLACEMENT_3D ( 'NONE', #573, #418, #85 ) ;
#786 = VERTEX_POINT ( 'NONE', #539 ) ;
#787 = DIRECTION ( 'NONE',  ( 0.0000000000000000000, 0.0000000000000000000, -1.000000000000000000 ) ) ;
#788 = ORIENTED_EDGE ( 'NONE', *, *, #758, .T. ) ;
#789 = CARTESIAN_POINT ( 'NONE',  ( 2.449293598294708880E-16, 75.50000000000000000, -13.99999999999999822 ) ) ;
#790 = DIRECTION ( 'NONE',  ( 0.0000000000000000000, -0.0000000000000000000, -1.000000000000000000 ) ) ;
#791 = CARTESIAN_POINT ( 'NONE',  ( 0.0000000000000000000, 87.00000000000000000, 7.000000000000000000 ) ) ;
#792 = EDGE_CURVE ( 'NONE', #564, #903, #592, .T. ) ;
#793 = PLANE ( 'NONE',  #754 ) ;
#794 = LINE ( 'NONE', #837, #668 ) ;
#795 = DIRECTION ( 'NONE',  ( 0.0000000000000000000, 0.0000000000000000000, 1.000000000000000000 ) ) ;
#796 = FACE_OUTER_BOUND ( 'NONE', #92, .T. ) ;
#797 = CARTESIAN_POINT ( 'NONE',  ( -1.658312395177700571, 102.0000000000000000, 4.500000000000000888 ) ) ;
#798 = ORIENTED_EDGE ( 'NONE', *, *, #497, .F. ) ;
#799 = EDGE_LOOP ( 'NONE', ( #774, #572, #595, #142, #67, #118 ) ) ;
#800 = CARTESIAN_POINT ( 'NONE',  ( -15.50000000000000178, 0.0000000000000000000, 3.249999999999998668 ) ) ;
#801 = ORIENTED_EDGE ( 'NONE', *, *, #508, .F. ) ;
#802 = DIRECTION ( 'NONE',  ( -0.0000000000000000000, -1.000000000000000000, -0.0000000000000000000 ) ) ;
#803 = CARTESIAN_POINT ( 'NONE',  ( 13.00000000000000000, -2.000000000000000000, 3.250000000000027978 ) ) ;
#804 = PLANE ( 'NONE',  #719 ) ;
#805 = AXIS2_PLACEMENT_3D ( 'NONE', #776, #209, #453 ) ;
#806 = ORIENTED_EDGE ( 'NONE', *, *, #998, .T. ) ;
#807 = CC_DESIGN_PERSON_AND_ORGANIZATION_ASSIGNMENT ( #872, #749, ( #404 ) ) ;
#808 = CARTESIAN_POINT ( 'NONE',  ( -15.50000000000000178, -2.000000000000000000, -3.250000000000001332 ) ) ;
#809 = VERTEX_POINT ( 'NONE', #221 ) ;
#810 = CARTESIAN_POINT ( 'NONE',  ( -13.00000000000000178, -2.000000000000000000, -3.250000000000001332 ) ) ;
#811 = CIRCLE ( 'NONE', #491, 18.00000000000000000 ) ;
#812 = VECTOR ( 'NONE', #395, 1000.000000000000000 ) ;
#813 = DIRECTION ( 'NONE',  ( 0.0000000000000000000, 0.0000000000000000000, -1.000000000000000000 ) ) ;
#814 = EDGE_LOOP ( 'NONE', ( #388, #725, #619, #232, #468 ) ) ;
#815 = EDGE_CURVE ( 'NONE', #629, #842, #681, .T. ) ;
#816 = EDGE_LOOP ( 'NONE', ( #1004, #288, #222, #442 ) ) ;
#817 = ORIENTED_EDGE ( 'NONE', *, *, #1009, .F. ) ;
#818 = DIRECTION ( 'NONE',  ( -0.0000000000000000000, -1.000000000000000000, -0.0000000000000000000 ) ) ;
#819 = DIRECTION ( 'NONE',  ( 0.0000000000000000000, 1.000000000000000000, 0.0000000000000000000 ) ) ;
#820 = CARTESIAN_POINT ( 'NONE',  ( 0.0000000000000000000, 77.00000000000000000, -18.00000000000000000 ) ) ;
#821 = EDGE_CURVE ( 'NONE', #405, #831, #367, .T. ) ;
#822 = AXIS2_PLACEMENT_3D ( 'NONE', #163, #407, #990 ) ;
#823 = VECTOR ( 'NONE', #93, 1000.000000000000000 ) ;
#824 = LINE ( 'NONE', #870, #380 ) ;
#825 = ORIENTED_EDGE ( 'NONE', *, *, #504, .T. ) ;
#826 = CARTESIAN_POINT ( 'NONE',  ( 15.50000000000000000, 0.0000000000000000000, 3.250000000000027978 ) ) ;
#827 = AXIS2_PLACEMENT_3D ( 'NONE', #51, #853, #115 ) ;
#828 = CARTESIAN_POINT ( 'NONE',  ( 13.85640646055101577, 75.50000000000000000, 7.999999999999273470 ) ) ;
#829 = ORIENTED_EDGE ( 'NONE', *, *, #188, .F. ) ;
#830 = DIRECTION ( 'NONE',  ( 0.0000000000000000000, 0.0000000000000000000, -1.000000000000000000 ) ) ;
#831 = VERTEX_POINT ( 'NONE', #69 ) ;
#832 = ADVANCED_FACE ( 'NONE', ( #899 ), #634, .F. ) ;
#833 = ADVANCED_FACE ( 'NONE', ( #334 ), #436, .T. ) ;
#834 = DIRECTION ( 'NONE',  ( -1.000000000000000000, 0.0000000000000000000, 0.0000000000000000000 ) ) ;
#835 = DATE_TIME_ROLE ( 'classification_date' ) ;
#836 = EDGE_CURVE ( 'NONE', #786, #440, #49, .T. ) ;
#837 = CARTESIAN_POINT ( 'NONE',  ( -1.658312395177700571, 90.00000000000000000, 4.500000000000000888 ) ) ;
#838 = CIRCLE ( 'NONE', #528, 2.000000000000780709 ) ;
#839 = CIRCLE ( 'NONE', #509, 6.000000000000000888 ) ;
#840 = ORIENTED_EDGE ( 'NONE', *, *, #134, .F. ) ;
#841 = DIRECTION ( 'NONE',  ( 0.0000000000000000000, 0.0000000000000000000, -1.000000000000000000 ) ) ;
#842 = VERTEX_POINT ( 'NONE', #307 ) ;
#843 = AXIS2_PLACEMENT_3D ( 'NONE', #280, #685, #860 ) ;
#844 = CARTESIAN_POINT ( 'NONE',  ( 0.0000000000000000000, 102.0000000000000000, 7.000000000000000000 ) ) ;
#845 = DIRECTION ( 'NONE',  ( 0.0000000000000000000, 0.0000000000000000000, -1.000000000000000000 ) ) ;
#846 = EDGE_CURVE ( 'NONE', #342, #574, #824, .T. ) ;
#847 = VECTOR ( 'NONE', #87, 1000.000000000000000 ) ;
#848 = DIRECTION ( 'NONE',  ( -0.0000000000000000000, -1.000000000000000000, -0.0000000000000000000 ) ) ;
#849 = FACE_OUTER_BOUND ( 'NONE', #742, .T. ) ;
#850 = DIRECTION ( 'NONE',  ( 0.0000000000000000000, 1.000000000000000000, 0.0000000000000000000 ) ) ;
#851 = ORIENTED_EDGE ( 'NONE', *, *, #576, .T. ) ;
#852 = ORIENTED_EDGE ( 'NONE', *, *, #84, .T. ) ;
#853 = DIRECTION ( 'NONE',  ( -1.000000000000000000, 0.0000000000000000000, 0.0000000000000000000 ) ) ;
#854 = ORIENTED_EDGE ( 'NONE', *, *, #125, .T. ) ;
#855 = ADVANCED_BREP_SHAPE_REPRESENTATION ( 'motor eje z_Predeterminado_sldprt', ( #636, #31 ), #298 ) ;
#856 = VERTEX_POINT ( 'NONE', #304 ) ;
#857 = DIRECTION ( 'NONE',  ( 0.0000000000000000000, 1.000000000000000000, 0.0000000000000000000 ) ) ;
#858 = DIRECTION ( 'NONE',  ( 0.0000000000000000000, -0.0000000000000000000, -1.000000000000000000 ) ) ;
#859 = DIRECTION ( 'NONE',  ( 0.0000000000000000000, 0.0000000000000000000, 1.000000000000000000 ) ) ;
#860 = DIRECTION ( 'NONE',  ( 0.0000000000000000000, 0.0000000000000000000, 1.000000000000000000 ) ) ;
#861 = ORIENTED_EDGE ( 'NONE', *, *, #562, .F. ) ;
#862 = CIRCLE ( 'NONE', #937, 18.00000000000000000 ) ;
#863 = CIRCLE ( 'NONE', #80, 2.999999999999999112 ) ;
#864 = AXIS2_PLACEMENT_3D ( 'NONE', #149, #886, #83 ) ;
#865 = ORIENTED_EDGE ( 'NONE', *, *, #815, .F. ) ;
#866 = CARTESIAN_POINT ( 'NONE',  ( 0.0000000000000000000, -2.000000000000000000, 0.0000000000000000000 ) ) ;
#867 = EDGE_LOOP ( 'NONE', ( #861, #955, #1043, #605 ) ) ;
#868 = DIRECTION ( 'NONE',  ( 0.0000000000000000000, 0.0000000000000000000, 1.000000000000000000 ) ) ;
#869 = EDGE_CURVE ( 'NONE', #91, #728, #355, .T. ) ;
#870 = CARTESIAN_POINT ( 'NONE',  ( 7.347880794884120722E-16, 87.00000000000000000, 13.00000000000000178 ) ) ;
#871 = DIRECTION ( 'NONE',  ( -1.000000000000000000, 0.0000000000000000000, 0.0000000000000000000 ) ) ;
#872 = PERSON_AND_ORGANIZATION ( #645, #243 ) ;
#873 = CARTESIAN_POINT ( 'NONE',  ( 0.0000000000000000000, 90.00000000000000000, 6.999999999999999112 ) ) ;
#874 = EDGE_CURVE ( 'NONE', #120, #101, #1012, .T. ) ;
#875 = VECTOR ( 'NONE', #596, 1000.000000000000000 ) ;
#876 = AXIS2_PLACEMENT_3D ( 'NONE', #450, #532, #53 ) ;
#877 = ORIENTED_EDGE ( 'NONE', *, *, #381, .F. ) ;
#878 = ORIENTED_EDGE ( 'NONE', *, *, #979, .T. ) ;
#879 = ORIENTED_EDGE ( 'NONE', *, *, #350, .F. ) ;
#880 = ORIENTED_EDGE ( 'NONE', *, *, #504, .F. ) ;
#881 = CARTESIAN_POINT ( 'NONE',  ( 7.347880794884120722E-16, 87.00000000000000000, 13.00000000000000178 ) ) ;
#882 = ADVANCED_FACE ( 'NONE', ( #464, #39, #27 ), #793, .F. ) ;
#883 = AXIS2_PLACEMENT_3D ( 'NONE', #70, #957, #471 ) ;
#884 = CARTESIAN_POINT ( 'NONE',  ( 0.0000000000000000000, 63.50000000000000000, 0.0000000000000000000 ) ) ;
#885 = AXIS2_PLACEMENT_3D ( 'NONE', #1034, #383, #57 ) ;
#886 = DIRECTION ( 'NONE',  ( -0.0000000000000000000, -1.000000000000000000, -0.0000000000000000000 ) ) ;
#887 = CIRCLE ( 'NONE', #290, 2.000000000000780709 ) ;
#888 = CARTESIAN_POINT ( 'NONE',  ( 13.85640646055101577, 75.50000000000000000, 7.999999999999273470 ) ) ;
#889 = VECTOR ( 'NONE', #16, 1000.000000000000000 ) ;
#890 = PLANE ( 'NONE',  #310 ) ;
#891 = EDGE_CURVE ( 'NONE', #987, #934, #96, .T. ) ;
#892 = VERTEX_POINT ( 'NONE', #570 ) ;
#893 = CARTESIAN_POINT ( 'NONE',  ( 15.50000000000000000, 0.0000000000000000000, -3.249999999999971578 ) ) ;
#894 = CARTESIAN_POINT ( 'NONE',  ( 2.204364238465235428E-15, 77.00000000000000000, 18.00000000000000000 ) ) ;
#895 = EDGE_CURVE ( 'NONE', #417, #892, #512, .T. ) ;
#896 = DIRECTION ( 'NONE',  ( 0.0000000000000000000, 1.000000000000000000, 0.0000000000000000000 ) ) ;
#897 = DIRECTION ( 'NONE',  ( 0.0000000000000000000, 1.000000000000000000, 0.0000000000000000000 ) ) ;
#898 = COORDINATED_UNIVERSAL_TIME_OFFSET ( 1, 0, .AHEAD. ) ;
#899 = FACE_OUTER_BOUND ( 'NONE', #402, .T. ) ;
#900 = LINE ( 'NONE', #66, #917 ) ;
#901 = EDGE_CURVE ( 'NONE', #599, #809, #306, .T. ) ;
#902 = ORIENTED_EDGE ( 'NONE', *, *, #65, .T. ) ;
#903 = VERTEX_POINT ( 'NONE', #408 ) ;
#904 = AXIS2_PLACEMENT_3D ( 'NONE', #374, #951, #795 ) ;
#905 = ORIENTED_EDGE ( 'NONE', *, *, #489, .T. ) ;
#906 = APPROVAL_STATUS ( 'not_yet_approved' ) ;
#907 = CARTESIAN_POINT ( 'NONE',  ( 2.204364238465235033E-15, 0.0000000000000000000, 18.00000000000000000 ) ) ;
#908 = PERSON_AND_ORGANIZATION_ROLE ( 'creator' ) ;
#909 = ADVANCED_FACE ( 'NONE', ( #266 ), #1035, .T. ) ;
#910 = EDGE_LOOP ( 'NONE', ( #469, #740, #925 ) ) ;
#911 = DIRECTION ( 'NONE',  ( 0.0000000000000000000, 0.0000000000000000000, 1.000000000000000000 ) ) ;
#912 = ADVANCED_FACE ( 'NONE', ( #748 ), #412, .T. ) ;
#913 = VECTOR ( 'NONE', #398, 1000.000000000000000 ) ;
#914 = VECTOR ( 'NONE', #790, 1000.000000000000000 ) ;
#915 = DIRECTION ( 'NONE',  ( 0.0000000000000000000, 1.000000000000000000, 0.0000000000000000000 ) ) ;
#916 = LINE ( 'NONE', #352, #784 ) ;
#917 = VECTOR ( 'NONE', #393, 1000.000000000000000 ) ;
#918 = AXIS2_PLACEMENT_3D ( 'NONE', #127, #47, #123 ) ;
#919 = ADVANCED_FACE ( 'NONE', ( #71 ), #976, .F. ) ;
#920 = CARTESIAN_POINT ( 'NONE',  ( 0.0000000000000000000, 77.00000000000000000, 0.0000000000000000000 ) ) ;
#921 = ORIENTED_EDGE ( 'NONE', *, *, #667, .F. ) ;
#922 = ORIENTED_EDGE ( 'NONE', *, *, #956, .F. ) ;
#923 = CC_DESIGN_PERSON_AND_ORGANIZATION_ASSIGNMENT ( #1000, #262, ( #588 ) ) ;
#924 = CARTESIAN_POINT ( 'NONE',  ( -13.85640646055038516, 75.50000000000000000, 5.999999999999277911 ) ) ;
#925 = ORIENTED_EDGE ( 'NONE', *, *, #516, .T. ) ;
#926 = AXIS2_PLACEMENT_3D ( 'NONE', #169, #819, #238 ) ;
#927 = DIRECTION ( 'NONE',  ( 0.0000000000000000000, 0.0000000000000000000, 1.000000000000000000 ) ) ;
#928 = ORIENTED_EDGE ( 'NONE', *, *, #35, .T. ) ;
#929 = CALENDAR_DATE ( 2020, 7, 7 ) ;
#930 = ORIENTED_EDGE ( 'NONE', *, *, #102, .F. ) ;
#931 = DIRECTION ( 'NONE',  ( 0.0000000000000000000, 1.000000000000000000, 0.0000000000000000000 ) ) ;
#932 = VERTEX_POINT ( 'NONE', #820 ) ;
#933 = ORIENTED_EDGE ( 'NONE', *, *, #112, .T. ) ;
#934 = VERTEX_POINT ( 'NONE', #488 ) ;
#935 = AXIS2_PLACEMENT_3D ( 'NONE', #136, #148, #1049 ) ;
#936 = DIRECTION ( 'NONE',  ( 0.0000000000000000000, 1.000000000000000000, 0.0000000000000000000 ) ) ;
#937 = AXIS2_PLACEMENT_3D ( 'NONE', #190, #272, #999 ) ;
#938 = DATE_AND_TIME ( #214, #982 ) ;
#939 = CARTESIAN_POINT ( 'NONE',  ( -13.85640646055038516, 75.50000000000000000, 7.999999999999635847 ) ) ;
#940 = ORIENTED_EDGE ( 'NONE', *, *, #112, .F. ) ;
#941 = CIRCLE ( 'NONE', #805, 2.000000000000359268 ) ;
#942 = CARTESIAN_POINT ( 'NONE',  ( 0.0000000000000000000, 63.50000000000000000, -18.00000000000000355 ) ) ;
#943 = CYLINDRICAL_SURFACE ( 'NONE', #377, 2.000000000000001776 ) ;
#944 = ORIENTED_EDGE ( 'NONE', *, *, #54, .F. ) ;
#945 = EDGE_CURVE ( 'NONE', #953, #597, #319, .T. ) ;
#946 = DIRECTION ( 'NONE',  ( 0.0000000000000000000, 0.0000000000000000000, -1.000000000000000000 ) ) ;
#947 = PLANE ( 'NONE',  #158 ) ;
#948 = LINE ( 'NONE', #477, #294 ) ;
#949 = AXIS2_PLACEMENT_3D ( 'NONE', #329, #981, #486 ) ;
#950 = CYLINDRICAL_SURFACE ( 'NONE', #325, 18.00000000000000000 ) ;
#951 = DIRECTION ( 'NONE',  ( 0.0000000000000000000, 1.000000000000000000, 0.0000000000000000000 ) ) ;
#952 = ORIENTED_EDGE ( 'NONE', *, *, #276, .F. ) ;
#953 = VERTEX_POINT ( 'NONE', #729 ) ;
#954 = CARTESIAN_POINT ( 'NONE',  ( -13.00000000000000178, 0.0000000000000000000, 3.249999999999998668 ) ) ;
#955 = ORIENTED_EDGE ( 'NONE', *, *, #846, .T. ) ;
#956 = EDGE_CURVE ( 'NONE', #903, #104, #601, .T. ) ;
#957 = DIRECTION ( 'NONE',  ( 0.0000000000000000000, 1.000000000000000000, 0.0000000000000000000 ) ) ;
#958 = PLANE ( 'NONE',  #980 ) ;
#959 = CIRCLE ( 'NONE', #732, 18.00000000000000000 ) ;
#960 = CARTESIAN_POINT ( 'NONE',  ( 2.449293598294708880E-16, 63.50000000000000000, -13.99999999999999822 ) ) ;
#961 = CIRCLE ( 'NONE', #876, 2.000000000000001776 ) ;
#962 = CARTESIAN_POINT ( 'NONE',  ( -13.85640646055038516, 63.50000000000000000, 7.999999999999635847 ) ) ;
#963 = VERTEX_POINT ( 'NONE', #7 ) ;
#964 = CARTESIAN_POINT ( 'NONE',  ( 0.0000000000000000000, 75.50000000000000000, 0.0000000000000000000 ) ) ;
#965 = ORIENTED_EDGE ( 'NONE', *, *, #576, .F. ) ;
#966 = AXIS2_PLACEMENT_3D ( 'NONE', #609, #936, #364 ) ;
#967 = AXIS2_PLACEMENT_3D ( 'NONE', #888, #897, #481 ) ;
#968 = CARTESIAN_POINT ( 'NONE',  ( -13.85640646055038516, 75.50000000000000000, 9.999999999999994671 ) ) ;
#969 = FACE_OUTER_BOUND ( 'NONE', #867, .T. ) ;
#970 = DIRECTION ( 'NONE',  ( 0.0000000000000000000, 0.0000000000000000000, 1.000000000000000000 ) ) ;
#971 = CIRCLE ( 'NONE', #267, 18.00000000000000000 ) ;
#972 = EDGE_CURVE ( 'NONE', #809, #104, #948, .T. ) ;
#973 = FACE_OUTER_BOUND ( 'NONE', #816, .T. ) ;
#974 = CARTESIAN_POINT ( 'NONE',  ( 13.00000000000000000, -2.000000000000000000, 3.250000000000027978 ) ) ;
#975 = ORIENTED_EDGE ( 'NONE', *, *, #741, .T. ) ;
#976 = PLANE ( 'NONE',  #518 ) ;
#977 = ORIENTED_EDGE ( 'NONE', *, *, #821, .T. ) ;
#978 = ORIENTED_EDGE ( 'NONE', *, *, #240, .F. ) ;
#979 = EDGE_CURVE ( 'NONE', #786, #616, #129, .T. ) ;
#980 = AXIS2_PLACEMENT_3D ( 'NONE', #639, #150, #143 ) ;
#981 = DIRECTION ( 'NONE',  ( 0.0000000000000000000, -1.000000000000000000, -0.0000000000000000000 ) ) ;
#982 = LOCAL_TIME ( 13, 17, 14.00000000000000000, #649 ) ;
#983 = CIRCLE ( 'NONE', #566, 2.000000000000001776 ) ;
#984 = APPLICATION_PROTOCOL_DEFINITION ( 'international standard', 'config_control_design', 1994, #172 ) ;
#985 = LINE ( 'NONE', #607, #230 ) ;
#986 = AXIS2_PLACEMENT_3D ( 'NONE', #22, #896, #578 ) ;
#987 = VERTEX_POINT ( 'NONE', #894 ) ;
#988 = ADVANCED_FACE ( 'NONE', ( #969 ), #540, .T. ) ;
#989 = DIRECTION ( 'NONE',  ( -0.0000000000000000000, 1.000000000000000000, -0.0000000000000000000 ) ) ;
#990 = DIRECTION ( 'NONE',  ( 0.0000000000000000000, 0.0000000000000000000, 1.000000000000000000 ) ) ;
#991 = ORIENTED_EDGE ( 'NONE', *, *, #264, .T. ) ;
#992 = APPROVAL ( #424, 'UNSPECIFIED' ) ;
#993 = EDGE_LOOP ( 'NONE', ( #21, #944 ) ) ;
#994 = CARTESIAN_POINT ( 'NONE',  ( 0.0000000000000000000, 0.0000000000000000000, 0.0000000000000000000 ) ) ;
#995 = DIRECTION ( 'NONE',  ( 0.0000000000000000000, 1.000000000000000000, 0.0000000000000000000 ) ) ;
#996 = ADVANCED_FACE ( 'NONE', ( #435 ), #225, .F. ) ;
#997 = CARTESIAN_POINT ( 'NONE',  ( -15.50000000000000178, -2.000000000000000000, -3.250000000000001332 ) ) ;
#998 = EDGE_CURVE ( 'NONE', #101, #616, #353, .T. ) ;
#999 = DIRECTION ( 'NONE',  ( 0.0000000000000000000, 0.0000000000000000000, 1.000000000000000000 ) ) ;
#1000 = PERSON_AND_ORGANIZATION ( #645, #243 ) ;
#1001 = DIRECTION ( 'NONE',  ( -0.0000000000000000000, -1.000000000000000000, -0.0000000000000000000 ) ) ;
#1002 = FACE_OUTER_BOUND ( 'NONE', #752, .T. ) ;
#1003 = ORIENTED_EDGE ( 'NONE', *, *, #381, .T. ) ;
#1004 = ORIENTED_EDGE ( 'NONE', *, *, #188, .T. ) ;
#1005 = AXIS2_PLACEMENT_3D ( 'NONE', #274, #850, #603 ) ;
#1006 = ORIENTED_EDGE ( 'NONE', *, *, #207, .F. ) ;
#1007 = DIRECTION ( 'NONE',  ( 0.0000000000000000000, 0.0000000000000000000, -1.000000000000000000 ) ) ;
#1008 = CARTESIAN_POINT ( 'NONE',  ( 15.50000000000000000, -2.000000000000000000, -3.249999999999971578 ) ) ;
#1009 = EDGE_CURVE ( 'NONE', #597, #631, #37, .T. ) ;
#1010 = CARTESIAN_POINT ( 'NONE',  ( 13.85640646055101577, 63.50000000000000000, 7.999999999999273470 ) ) ;
#1011 = CARTESIAN_POINT ( 'NONE',  ( 13.85640646055101577, 63.50000000000000000, 10.00000000000005329 ) ) ;
#1012 = CIRCLE ( 'NONE', #1045, 2.000000000000359268 ) ;
#1013 = VECTOR ( 'NONE', #989, 1000.000000000000000 ) ;
#1014 = ORIENTED_EDGE ( 'NONE', *, *, #547, .T. ) ;
#1015 = CARTESIAN_POINT ( 'NONE',  ( -13.85640646055038516, 75.50000000000000000, 7.999999999999635847 ) ) ;
#1016 = ORIENTED_EDGE ( 'NONE', *, *, #945, .T. ) ;
#1017 = ORIENTED_EDGE ( 'NONE', *, *, #323, .T. ) ;
#1018 = DIRECTION ( 'NONE',  ( 0.0000000000000000000, 1.000000000000000000, 0.0000000000000000000 ) ) ;
#1019 = DIRECTION ( 'NONE',  ( 0.0000000000000000000, -1.000000000000000000, 0.0000000000000000000 ) ) ;
#1020 = DIRECTION ( 'NONE',  ( -0.0000000000000000000, -1.000000000000000000, -0.0000000000000000000 ) ) ;
#1021 = AXIS2_PLACEMENT_3D ( 'NONE', #498, #656, #911 ) ;
#1022 = AXIS2_PLACEMENT_3D ( 'NONE', #147, #82, #731 ) ;
#1023 = CYLINDRICAL_SURFACE ( 'NONE', #179, 3.000000000000000000 ) ;
#1024 = FACE_OUTER_BOUND ( 'NONE', #88, .T. ) ;
#1025 = FACE_BOUND ( 'NONE', #1039, .T. ) ;
#1026 = ORIENTED_EDGE ( 'NONE', *, *, #783, .T. ) ;
#1027 = DIRECTION ( 'NONE',  ( 0.0000000000000000000, 1.000000000000000000, 0.0000000000000000000 ) ) ;
#1028 = ORIENTED_EDGE ( 'NONE', *, *, #783, .F. ) ;
#1029 = EDGE_CURVE ( 'NONE', #597, #171, #768, .T. ) ;
#1030 = ORIENTED_EDGE ( 'NONE', *, *, #836, .T. ) ;
#1031 = CARTESIAN_POINT ( 'NONE',  ( 0.0000000000000000000, 57.00000000000000000, 0.0000000000000000000 ) ) ;
#1032 = DIRECTION ( 'NONE',  ( 0.0000000000000000000, 0.0000000000000000000, -1.000000000000000000 ) ) ;
#1033 = ORIENTED_EDGE ( 'NONE', *, *, #617, .T. ) ;
#1034 = CARTESIAN_POINT ( 'NONE',  ( 0.0000000000000000000, 63.50000000000000000, 0.0000000000000000000 ) ) ;
#1035 = CYLINDRICAL_SURFACE ( 'NONE', #864, 3.000000000000000000 ) ;
#1036 = FACE_OUTER_BOUND ( 'NONE', #19, .T. ) ;
#1037 = ORIENTED_EDGE ( 'NONE', *, *, #1050, .T. ) ;
#1038 = DIRECTION ( 'NONE',  ( -0.0000000000000000000, 0.0000000000000000000, 1.000000000000000000 ) ) ;
#1039 = EDGE_LOOP ( 'NONE', ( #773, #184 ) ) ;
#1040 = ORIENTED_EDGE ( 'NONE', *, *, #482, .T. ) ;
#1041 = DIRECTION ( 'NONE',  ( 0.0000000000000000000, 0.0000000000000000000, 1.000000000000000000 ) ) ;
#1042 = VERTEX_POINT ( 'NONE', #659 ) ;
#1043 = ORIENTED_EDGE ( 'NONE', *, *, #54, .T. ) ;
#1044 = PLANE ( 'NONE',  #644 ) ;
#1045 = AXIS2_PLACEMENT_3D ( 'NONE', #575, #735, #321 ) ;
#1046 = DIRECTION ( 'NONE',  ( -0.0000000000000000000, 1.000000000000000000, -0.0000000000000000000 ) ) ;
#1047 = CARTESIAN_POINT ( 'NONE',  ( 0.0000000000000000000, 102.0000000000000000, 7.000000000000000000 ) ) ;
#1048 = DIRECTION ( 'NONE',  ( 1.000000000000000000, 0.0000000000000000000, 0.0000000000000000000 ) ) ;
#1049 = DIRECTION ( 'NONE',  ( 1.000000000000000000, 0.0000000000000000000, 0.0000000000000000000 ) ) ;
#1050 = EDGE_CURVE ( 'NONE', #629, #328, #379, .T. ) ;
#1051 = LINE ( 'NONE', #673, #138 ) ;
ENDSEC;
END-ISO-10303-21;
